# PDE for PDE_dV_7.0V_Pxt_15_LCT5 in fraction units from LCT5 7.0V template
# Developed by L. David M. Miranda from Andrii Nagai's measurements on LCT5 sensor
# Wavelength [nm] - PDE
280.0	0.05500030
300.0	0.21708800
310.0	0.33375100
320.0	0.35684500
330.0	0.36180900
340.0	0.38465500
350.0	0.39709700
360.0	0.39408700
370.0	0.38988600
380.0	0.42932000
390.0	0.43888300
400.0	0.46645800
410.0	0.49121000
420.0	0.49797900
430.0	0.50217800
440.0	0.51117400
450.0	0.51943200
460.0	0.52407900
470.0	0.53413900
480.0	0.53312800
490.0	0.52601200
500.0	0.51387500
510.0	0.50697500
520.0	0.49632600
530.0	0.48802800
540.0	0.47409800
550.0	0.46506800
560.0	0.45073500
570.0	0.44368300
580.0	0.43118900
590.0	0.42186600
600.0	0.41014700
610.0	0.39616100
620.0	0.38212300
630.0	0.36810300
640.0	0.35289500
650.0	0.33962900
660.0	0.32571100
670.0	0.30870200
680.0	0.29601600
690.0	0.28087600
700.0	0.26447100
710.0	0.25103000
720.0	0.23850600
730.0	0.22674800
740.0	0.21400800
750.0	0.20065900
760.0	0.18797300
770.0	0.17705400
780.0	0.16507900
790.0	0.15278200
800.0	0.14140100
810.0	0.13086700
820.0	0.12111900
830.0	0.11209700
840.0	0.10374600
850.0	0.09601810
860.0	0.08886550
870.0	0.08224580
880.0	0.07611920
890.0	0.07044890
900.0	0.06520110
910.0	0.06034410
920.0	0.05584900
930.0	0.05168870
940.0	0.04783840
950.0	0.04427480
960.0	0.04097670
970.0	0.03792430
980.0	0.03509920
990.0	0.03248460
1000.0	0.03006480
