300            0.             # extrapolation, zero transparency in ozone layer
315            0.3            # extrapolation
330            1.             # extrapolation
350.163934426  1.82421227197
350.601092896  1.6583747927
351.256830601  1.16086235489
351.693989071  2.15588723051
352.131147541  2.65339966833
353.224043716  2.15588723051
353.661202186  3.81426202322
354.098360656  4.4776119403
354.535519126  3.81426202322
354.754098361  2.65339966833
355.191256831  2.48756218905
355.628415301  2.98507462687
356.50273224   1.82421227197
357.158469945  1.49253731343
357.81420765   1.49253731343
358.25136612   1.99004975124
359.12568306   1.16086235489
359.781420765  0.829187396352
360.655737705  1.99004975124
360.87431694   2.32172470978
361.74863388   2.15588723051
363.06010929   2.65339966833
364.590163934  2.48756218905
365.901639344  1.82421227197
366.775956284  1.6583747927
367.431693989  1.99004975124
367.868852459  1.49253731343
368.961748634  1.82421227197
370.273224044  1.82421227197
371.147540984  1.82421227197
372.240437158  2.65339966833
372.896174863  2.98507462687
373.989071038  2.8192371476
374.644808743  2.15588723051
375.956284153  2.15588723051
377.049180328  2.48756218905
377.486338798  2.65339966833
378.142076503  1.99004975124
379.016393443  2.48756218905
379.890710383  2.65339966833
380.546448087  2.15588723051
381.857923497  2.48756218905
382.950819672  2.48756218905
383.169398907  2.8192371476
384.043715847  2.32172470978
385.136612022  1.6583747927
386.010928962  1.99004975124
387.103825137  1.32669983416
389.071038251  2.32172470978
390.163934426  2.32172470978
390.601092896  2.48756218905
391.475409836  1.99004975124
392.131147541  4.80928689884
392.131147541  9.28689883914
392.786885246  11.2769485904
393.442622951  7.62852404643
393.442622951  4.4776119403
394.316939891  2.65339966833
395.628415301  1.82421227197
397.158469945  1.99004975124
398.469945355  1.99004975124
399.781420765  2.65339966833
401.530054645  2.8192371476
402.404371585  2.48756218905
403.06010929   3.48258706468
403.715846995  4.4776119403
404.590163934  3.15091210614
405.683060109  3.48258706468
406.994535519  3.15091210614
408.524590164  3.48258706468
409.180327869  1.99004975124
410.054644809  2.65339966833
410.710382514  2.8192371476
411.366120219  2.32172470978
412.008733624  2.48447204969
413.64628821   2.48447204969
415.283842795  3.31262939959
416.92139738   3.72670807453
418.558951965  2.89855072464
420.19650655   2.89855072464
422.379912664  2.07039337474
423.471615721  2.89855072464
425.109170306  2.89855072464
425.655021834  3.31262939959
427.292576419  2.89855072464
429.475982533  2.89855072464
430.56768559   3.31262939959
432.205240175  3.31262939959
433.296943231  2.89855072464
434.388646288  4.96894409938
434.934497817  5.79710144928
436.026200873  4.14078674948
437.11790393   2.89855072464
438.209606987  3.31262939959
440.3930131    4.55486542443
442.030567686  3.72670807453
444.213973799  3.72670807453
447.489082969  3.31262939959
449.672489083  3.72670807453
452.401746725  4.14078674948
454.585152838  4.14078674948
457.31441048   4.14078674948
460.043668122  4.14078674948
464.410480349  4.14078674948
468.231441048  4.14078674948
469.868995633  3.72670807453
471.506550218  4.55486542443
473.144104803  3.72670807453
475.327510917  4.96894409938
477.510917031  4.14078674948
479.148471616  4.55486542443
481.331877729  4.55486542443
482.969432314  5.79710144928
484.6069869    4.14078674948
486.790393013  4.14078674948
488.427947598  5.79710144928
490.065502183  4.14078674948
492.794759825  4.55486542443
495.524017467  5.38302277433
498.799126638  4.14078674948
500.982532751  4.96894409938
503.165938865  4.55486542443
505.895196507  4.96894409938
506.986899563  5.38302277433
509.716157205  4.55486542443
514.082969432  4.96894409938
516.266375546  5.38302277433
518.995633188  6.21118012422
521.179039301  5.38302277433
523.908296943  5.79710144928
526.091703057  4.96894409938
528.820960699  5.38302277433
529.912663755  5.79710144928
531.004366812  6.62525879917
532.641921397  6.62525879917
534.825327511  5.79710144928
543.013100437  5.79710144928
544.104803493  7.86749482402
545.19650655   8.69565217391
546.834061135  7.45341614907
548.471615721  6.62525879917
552.838427948  6.62525879917
554.475982533  10.7660455487
555.56768559   38.0952380952
557.205240175  72.049689441
558.296943231  48.4472049689
559.388646288  13.6645962733
559.388646288  9.52380952381
561.572052402  7.45341614907
564.847161572  7.03933747412
569.213973799  7.86749482402
571.943231441  7.45341614907
575.76419214   8.69565217391
579.03930131   8.69565217391
581.222707424  8.28157349896
584.497816594  7.86749482402
586.135371179  12.8364389234
587.227074236  23.602484472
588.864628821  32.7122153209
589.956331878  26.5010351967
589.956331878  17.3913043478
591.048034934  13.2505175983
592.139737991  11.5942028986
595.414847162  10.7660455487
600.327510917  9.10973084886
606.331877729  8.28157349896
611.244541485  8.28157349896
614.519650655  11.5942028986
617.794759825  9.10973084886
621.069868996  10.3519668737
623.799126638  13.2505175983
626.528384279  12.4223602484
627.620087336  26.9151138716
628.165938865  48.033126294
629.257641921  66.2525879917
630.349344978  48.8612836439
631.441048035  22.3602484472
631.441048035  15.734989648
632.532751092  11.5942028986
634.170305677  14.9068322981
634.716157205  21.9461697723
635.807860262  27.3291925466
636.899563319  21.9461697723
637.445414847  13.6645962733
638.537117904  9.10973084886
639.628820961  8.28157349896
642.903930131  8.28157349896
644.541484716  11.1801242236
645.633187773  12.8364389234
647.270742358  10.7660455487
649.454148472  12.4223602484
651.637554585  10.7660455487
653.27510917   12.4223602484
656.004366812  12.8364389234
661.462882096  8.69565217391
671.288209607  7.86749482402
679.475982533  7.86749482402
681.113537118  14.9068322981
682.751091703  20.2898550725
683.84279476   16.5631469979
685.480349345  18.6335403727
688.209606987  13.2505175983
689.847161572  14.9068322981
690.3930131    16.5631469979
694.213973799  16.9772256729
696.397379913  14.4927536232
699.672489083  12.0082815735
701.855895197  9.52380952381
704.585152838  10.7660455487
710.043668122  9.10973084886
713.864628821  10.3519668737
718.231441048  9.10973084886
720.414847162  9.10973084886
722.052401747  23.1884057971
722.598253275  37.6811594203
723.689956332  40.5797101449
724.23580786   33.9544513458
725.327510917  28.9855072464
726.419213974  36.0248447205
727.510917031  40.16563147
728.056768559  32.7122153209
729.148471616  26.5010351967
730.240174672  31.4699792961
731.877729258  36.0248447205
733.515283843  34.3685300207
734.6069869    31.0559006211
736.244541485  27.7432712215
737.88209607   21.1180124224
738.973799127  22.7743271222
740.065502183  19.4616977226
741.15720524   15.3209109731
742.248908297  16.5631469979
743.886462882  15.734989648
744.978165939  20.2898550725
746.615720524  26.0869565217
747.707423581  21.1180124224
749.344978166  14.9068322981
750.436681223  23.1884057971
751.528384279  30.6418219462
752.620087336  23.602484472
753.711790393  17.3913043478
754.80349345   22.3602484472
755.895196507  25.2587991718
756.441048035  26.0869565217
758.07860262   21.9461697723
758.624454148  16.9772256729
759.716157205  14.0786749482
761.35371179   16.5631469979
762.991266376  13.2505175983
764.628820961  15.734989648
766.812227074  13.6645962733
768.449781659  19.8757763975
768.995633188  29.3995859213
769.541484716  45.9627329193
770.087336245  55.4865424431
770.633187773  56.7287784679
771.72489083   45.9627329193
772.816593886  37.6811594203
773.362445415  48.4472049689
774.454148472  68.3229813665
775.545851528  76.6045548654
777.183406114  76.6045548654
777.729257642  62.1118012422
778.27510917   50.1035196687
779.366812227  45.5486542443
781.004366812  47.2049689441
782.096069869  41.4078674948
783.187772926  53.8302277433
784.279475983  71.2215320911
784.825327511  76.6045548654
785.917030568  67.9089026915
787.008733624  53.8302277433
788.100436681  45.9627329193
788.100436681  43.4782608696
789.192139738  57.1428571429
789.737991266  71.2215320911
790.283842795  78.2608695652
791.375545852  75.3623188406
791.375545852  61.2836438923
792.467248908  45.5486542443
793.013100437  36.4389233954
794.104803493  45.1345755694
795.19650655   55.4865424431
796.288209607  58.3850931677
797.379912664  61.6977225673
799.017467249  54.2443064182
799.563318777  46.7908902692
799.563318777  42.6501035197
800.655021834  48.8612836439
802.292576419  39.751552795
803.384279476  27.3291925466
804.475982533  30.6418219462
805.56768559   28.1573498965
806.113537118  23.1884057971
806.659388646  17.8053830228
808.296943231  20.2898550725
808.84279476   21.1180124224
809.934497817  19.4616977226
811.026200873  14.4927536232
812.663755459  15.734989648
815.3930131   12.8364389234
818.122270742  18.2194616977
821.943231441  13.2505175983
824.672489083  19.8757763975
825.76419214   59.2132505176
827.401746725  112.215320911
829.03930131   85.3002070393
829.585152838  61.6977225673
830.676855895  33.9544513458
831.768558952  69.9792960663
832.31441048   96.8944099379
832.860262009  131.677018634
834.497816594  122.98136646
835.043668122  68.3229813665
836.135371179  47.2049689441
837.227074236  73.7060041408
838.864628821  92.3395445135
838.864628821  98.5507246377
839.956331878  85.7142857143
840.502183406  100.621118012
841.048034934  106.004140787
843.231441048  101.035196687
843.231441048  89.8550724638
843.777292576  83.6438923395
844.323144105  94.8240165631
845.414847162  83.6438923395
845.96069869   57.5569358178
847.052401747  38.0952380952
848.689956332  55.4865424431
849.781659389  43.4782608696
850.327510917  29.3995859213
850.873362445  21.1180124224
851.965065502  27.7432712215
853.602620087  31.884057971
854.148471616  26.9151138716
854.694323144  20.2898550725
855.786026201  16.149068323
857.423580786  22.3602484472
859.6069869    36.0248447205
860.698689956  54.6583850932
861.790393013  63.768115942
862.88209607   61.6977225673
864.519650655  67.9089026915
865.611353712  57.9710144928
866.703056769  44.7204968944
867.248908297  29.3995859213
868.886462882  19.4616977226
871.069868996  14.4927536232
872.707423581  40.16563147
872.707423581  23.1884057971
873.253275109  65.4244306418
873.799126638  100.207039337
874.344978166  132.919254658
875.436681223  182.608695652
876.528384279  155.693581781
877.074235808  101.863354037
877.074235808  127.950310559
877.620087336  69.9792960663
878.711790393  43.4782608696
879.80349345   86.5424430642
880.349344978  176.811594203
880.349344978  132.091097308
881.441048035  210.766045549
882.532751092  154.037267081
883.07860262   103.933747412
884.170305677  67.4948240166
885.807860262  103.933747412
886.35371179   133.747412008
887.445414847  142.028985507
887.991266376  135.817805383
888.537117904  133.747412008
889.082969432  144.513457557
889.628820961  161.49068323
890.720524017  153.623188406
891.266375546  139.958592133
892.358078603  89.0269151139
892.903930131  115.942028986
893.449781659  133.333333333
895.087336245  108.902691511
895.633187773  72.8778467909
896.179039301  55.0724637681
897.270742358  72.8778467909
897.816593886  89.0269151139
899.454148472  65.0103519669
900            38.5093167702
900.545851528  29.8136645963
901.637554585  46.3768115942
902.729257642  57.9710144928
904.366812227  38.9233954451
905.458515284  20.2898550725
907.096069869  26.0869565217
908.187772926  31.0559006211
909.279475983  23.602484472
910.917030568  13.6645962733
913.100436681  18.6335403727
914.192139738  22.7743271222
915.283842795  16.5631469979
916.92139738   11.1801242236
919.104803493  16.5631469979
920.19650655   20.2898550725
922.379912664  17.3913043478
922.925764192  24.8447204969
923.471615721  37.2670807453
924.563318777  38.9233954451
926.746724891  27.3291925466
927.292576419  43.4782608696
927.838427948  82.8157349896
928.384279476  198.757763975
930.021834061  252.173913043
931.113537118  145.755693582
932.205240175  77.8467908903
933.296943231  37.2670807453
934.388646288  159.420289855
936.026200873  255.486542443
937.11790393   150.310559006
938.209606987  84.8861283644
940.3930131    155.279503106
940.938864629  213.250517598
942.576419214  251.345755694
943.668122271  190.890269151
944.759825328  247.204968944
946.943231441  184.265010352
948.034934498  140.786749482
949.126637555  162.732919255
951.855895197  76.1904761905
954.585152838  173.913043478
957.31441048   40.9937888199
959.497816594  79.917184265
962.227074236  34.3685300207
964.410480349  89.8550724638
966.048034934  155.279503106
967.68558952   186.335403727
968.231441048  208.695652174
969.323144105  221.118012422
999.           221.118012422 # extrapolation
