<?xml version="1.0" encoding="UTF-8" standalone="no"?>
<svg
   xmlns:dc="http://purl.org/dc/elements/1.1/"
   xmlns:cc="http://creativecommons.org/ns#"
   xmlns:rdf="http://www.w3.org/1999/02/22-rdf-syntax-ns#"
   xmlns:svg="http://www.w3.org/2000/svg"
   xmlns="http://www.w3.org/2000/svg"
   xmlns:sodipodi="http://sodipodi.sourceforge.net/DTD/sodipodi-0.dtd"
   xmlns:inkscape="http://www.inkscape.org/namespaces/inkscape"
   width="62.233891mm"
   height="43.363457mm"
   viewBox="0 0 62.233891 43.363457"
   version="1.1"
   id="svg8"
   inkscape:version="1.0.2 (e86c870879, 2021-01-15, custom)"
   sodipodi:docname="Cherenkov.svg"
   inkscape:export-filename="C:\DAVIDE\SCUOLA\UNIVERSITA_DI_FISICA\DOTTORATO\SiPM\Altro\SNR_Cherenkov_NSB\Files\Cherenkov.png"
   inkscape:export-xdpi="300"
   inkscape:export-ydpi="300">
  <defs
     id="defs2">
    <clipPath
       clipPathUnits="userSpaceOnUse"
       id="clipPath867">
      <path
         d="M 286.15201,734.00403 H 53.592011 V 559.76402 H 286.15201 Z"
         id="path865" />
    </clipPath>
    <clipPath
       clipPathUnits="userSpaceOnUse"
       id="clipPath991">
      <path
         d="m 336.742,613.03302 h 152.569 v 118.039 H 336.742 Z"
         id="path989" />
    </clipPath>
    <clipPath
       clipPathUnits="userSpaceOnUse"
       id="clipPath1555">
      <path
         d="M 336.742,487.125 H 489.311 V 605.164 H 336.742 Z"
         id="path1553" />
    </clipPath>
    <clipPath
       clipPathUnits="userSpaceOnUse"
       id="clipPath2073">
      <path
         d="m 336.742,613.03302 h 152.569 v 118.039 H 336.742 Z"
         id="path2071" />
    </clipPath>
    <clipPath
       clipPathUnits="userSpaceOnUse"
       id="clipPath2313">
      <path
         d="m 336.742,613.03302 h 152.569 v 118.039 H 336.742 Z"
         id="path2311" />
    </clipPath>
    <clipPath
       clipPathUnits="userSpaceOnUse"
       id="clipPath991-6">
      <path
         d="m 336.742,613.03302 h 152.569 v 118.039 H 336.742 Z"
         id="path989-6" />
    </clipPath>
  </defs>
  <sodipodi:namedview
     id="base"
     pagecolor="#ffffff"
     bordercolor="#666666"
     borderopacity="1.0"
     inkscape:pageopacity="0.0"
     inkscape:pageshadow="2"
     inkscape:zoom="3.959798"
     inkscape:cx="143.39926"
     inkscape:cy="62.904657"
     inkscape:document-units="mm"
     inkscape:current-layer="layer1"
     inkscape:document-rotation="0"
     showgrid="false"
     inkscape:window-width="1920"
     inkscape:window-height="998"
     inkscape:window-x="-11"
     inkscape:window-y="-11"
     inkscape:window-maximized="1" />
  <metadata
     id="metadata5">
    <rdf:RDF>
      <cc:Work
         rdf:about="">
        <dc:format>image/svg+xml</dc:format>
        <dc:type
           rdf:resource="http://purl.org/dc/dcmitype/StillImage" />
        <dc:title />
      </cc:Work>
    </rdf:RDF>
  </metadata>
  <g
     inkscape:label="Livello 1"
     inkscape:groupmode="layer"
     id="layer1"
     transform="translate(-135.61335,-151.24166)">
    <g
       id="g985"
       transform="matrix(0.35277777,0,0,-0.35277777,25.167462,410.22888)"
       style="stroke:#000000">
      <g
         id="g987"
         clip-path="url(#clipPath991-6)"
         style="stroke:#000000">
        <g
           id="g993"
           transform="translate(334.62399,613.03302)"
           style="stroke:#000000">
          <path
             d="M 0,0 3.8139999,0.03 5.296,0.147 l 0.4239998,0.1 c 0.9960003,0.35 1.303,0.927 1.6960001,1.881 L 7.8390002,3.4130001 8.2639999,5.4889998 C 10.115,17.997999 10.241,30.693001 11.23,43.285 l 1.059,14.508999 0.213,2.477001 0.848,7.687 c 0.656,4.207001 1.245,8.583 3.178,12.377999 l 0.424,0.521003 0.212,0.501999 0.211,-0.088 0.212999,0.572998 0.424,0.191002 0.210001,0.376999 0.212999,0.01 0.211001,0.08701 0.211,0.305999 h 0.213 l 0.212,0.04 0.211999,0.219994 0.212,-0.01 0.212,0.076 0.212,0.132004 0.211001,0.015 0.211999,-0.029 0.213002,0.09499 0.212,0.01801 0.210998,-0.038 0.424002,0.055 1.695,-0.289002 1.059999,-0.309997 1.483999,-0.640999 1.270001,-0.685005 1.484001,-0.931 2.118999,-1.510994 1.272,-1.007004 2.118002,-1.766998 1.483997,-1.289001 13.773003,-12.557999 2.330997,-2.028999 c 5.563,-4.836003 11.320999,-9.062001 17.376003,-13.25 L 69.291,46.889 l 0.211998,-0.551998 0.210999,-0.315003 0.213005,0.171002 0.211998,-0.08 c 0.723999,-1.052998 3.561996,-0.549 3.602997,-3.532997 l 0.212005,-0.68 0.210999,0.180999 0.211998,0.100998 0.211998,-0.059 0.211006,0.354 0.212997,-0.927002 0.210999,0.371002 0.212997,0.224999 0.210007,-0.151001 0.212998,0.153 0.211998,0.029 0.210998,0.131001 0.212006,0.025 0.211998,-0.019 0.423996,-0.16 0.635002,-0.328998 2.756004,-1.492001 1.058998,-0.562 0.211998,-0.228001 0.212998,-0.716999 0.211006,-0.466999 0.423996,0.399998 0.424003,-0.178997 0.211998,0.097 0.422997,-0.184997 1.060005,-0.403 0.422997,-0.223999 0.425003,-0.342003 0.211998,-0.32 0.424003,-1.117 0.211998,-0.191998 0.422997,0.718998 0.212005,-0.535999 0.423996,0.175998 0.424004,-0.444 0.635994,0.097 0.211006,0.064 0.211998,-0.046 0.211998,0.032 0.424004,-0.169002 L 90.904999,35.305 93.235001,34.268002 94.083,33.820999 94.294998,33.743 94.508003,32.691002 94.719002,28.6 94.931,30.684999 l 0.211998,-0.487998 0.212005,0.799999 0.211998,0.625999 0.211998,-0.019 0.211998,-0.670999 0.211006,-0.195 0.211998,0.149999 0.211998,0.668 0.212998,0.471 0.423004,-1.377 3.178999,-1.275 c 16.106,-6.23 33.221,-9.999001 50.22,-12.816 l 4.026,-0.642"
             style="fill:none;stroke:#000000;stroke-width:0.684;stroke-linecap:square;stroke-linejoin:round;stroke-miterlimit:10;stroke-dasharray:none;stroke-opacity:1"
             id="path995" />
        </g>
      </g>
    </g>
    <g
       id="g997"
       transform="matrix(0.35277777,0,0,-0.35277777,143.96291,152.32329)">
      <path
         d="M 0,0 H 152.56799"
         style="fill:none;stroke:#000000;stroke-width:0.35;stroke-linecap:square;stroke-linejoin:miter;stroke-miterlimit:10;stroke-dasharray:none;stroke-opacity:1"
         id="path999" />
      <g
         id="g1001"
         transform="translate(152.56799,-118.038)">
        <path
           d="M 0,0 V 118.038"
           style="fill:none;stroke:#000000;stroke-width:0.35;stroke-linecap:square;stroke-linejoin:miter;stroke-miterlimit:10;stroke-dasharray:none;stroke-opacity:1"
           id="path1003" />
        <g
           id="g1005"
           transform="translate(-152.56799)">
          <path
             d="M 0,0 H 152.56799"
             style="fill:none;stroke:#000000;stroke-width:0.35;stroke-linecap:square;stroke-linejoin:miter;stroke-miterlimit:10;stroke-dasharray:none;stroke-opacity:1"
             id="path1007" />
          <g
             id="g1009">
            <path
               d="M 0,0 V 118.038"
               style="fill:none;stroke:#000000;stroke-width:0.35;stroke-linecap:square;stroke-linejoin:miter;stroke-miterlimit:10;stroke-dasharray:none;stroke-opacity:1"
               id="path1011" />
          </g>
        </g>
      </g>
    </g>
    <g
       id="g1013"
       transform="matrix(0.35277777,0,0,-0.35277777,147.70059,193.96446)"
       style="fill:#000000">
      <path
         d="M 0,0 V 2.734"
         style="fill:#000000;fill-opacity:1;fill-rule:nonzero;stroke:none"
         id="path1015" />
    </g>
    <g
       id="g1017"
       transform="matrix(0.35277777,0,0,-0.35277777,147.70059,193.96446)"
       style="fill:#000000">
      <path
         d="M 0,0 V 2.734"
         style="fill:#000000;stroke:#000000;stroke-width:0.35;stroke-linecap:butt;stroke-linejoin:round;stroke-miterlimit:10;stroke-dasharray:none;stroke-opacity:1"
         id="path1019" />
    </g>
    <g
       id="g1021"
       transform="matrix(0.35277777,0,0,-0.35277777,147.70059,152.32329)"
       style="fill:#000000">
      <path
         d="M 0,0 V -2.734"
         style="fill:#000000;fill-opacity:1;fill-rule:nonzero;stroke:none"
         id="path1023" />
    </g>
    <g
       id="g1025"
       transform="matrix(0.35277777,0,0,-0.35277777,147.70059,152.32329)"
       style="fill:#000000">
      <path
         d="M 0,0 V -2.734"
         style="fill:#000000;stroke:#000000;stroke-width:0.35;stroke-linecap:butt;stroke-linejoin:round;stroke-miterlimit:10;stroke-dasharray:none;stroke-opacity:1"
         id="path1027" />
    </g>
    <g
       id="g1029"
       transform="matrix(0.35277777,0,0,-0.35277777,155.1756,193.96446)">
      <path
         d="M 0,0 V 2.734"
         style="fill:#000000;fill-opacity:1;fill-rule:nonzero;stroke:none"
         id="path1031" />
    </g>
    <g
       id="g1033"
       transform="matrix(0.35277777,0,0,-0.35277777,155.1756,193.96446)">
      <path
         d="M 0,0 V 2.734"
         style="fill:none;stroke:#000000;stroke-width:0.35;stroke-linecap:butt;stroke-linejoin:round;stroke-miterlimit:10;stroke-dasharray:none;stroke-opacity:1"
         id="path1035" />
    </g>
    <g
       id="g1037"
       transform="matrix(0.35277777,0,0,-0.35277777,155.1756,152.32329)">
      <path
         d="M 0,0 V -2.734"
         style="fill:#000000;fill-opacity:1;fill-rule:nonzero;stroke:none"
         id="path1039" />
    </g>
    <g
       id="g1041"
       transform="matrix(0.35277777,0,0,-0.35277777,155.1756,152.32329)">
      <path
         d="M 0,0 V -2.734"
         style="fill:none;stroke:#000000;stroke-width:0.35;stroke-linecap:butt;stroke-linejoin:round;stroke-miterlimit:10;stroke-dasharray:none;stroke-opacity:1"
         id="path1043" />
    </g>
    <g
       id="g1045"
       transform="matrix(0.35277777,0,0,-0.35277777,162.65096,193.96446)">
      <path
         d="M 0,0 V 2.734"
         style="fill:#000000;fill-opacity:1;fill-rule:nonzero;stroke:none"
         id="path1047" />
    </g>
    <g
       id="g1049"
       transform="matrix(0.35277777,0,0,-0.35277777,162.65096,193.96446)">
      <path
         d="M 0,0 V 2.734"
         style="fill:none;stroke:#000000;stroke-width:0.35;stroke-linecap:butt;stroke-linejoin:round;stroke-miterlimit:10;stroke-dasharray:none;stroke-opacity:1"
         id="path1051" />
    </g>
    <g
       id="g1061"
       transform="matrix(0.35277777,0,0,-0.35277777,170.12666,193.96446)">
      <path
         d="M 0,0 V 2.734"
         style="fill:#000000;fill-opacity:1;fill-rule:nonzero;stroke:none"
         id="path1063" />
    </g>
    <g
       id="g1065"
       transform="matrix(0.35277777,0,0,-0.35277777,170.12666,193.96446)">
      <path
         d="M 0,0 V 2.734"
         style="fill:none;stroke:#000000;stroke-width:0.35;stroke-linecap:butt;stroke-linejoin:round;stroke-miterlimit:10;stroke-dasharray:none;stroke-opacity:1"
         id="path1067" />
    </g>
    <g
       id="g1077"
       transform="matrix(0.35277777,0,0,-0.35277777,177.60202,193.96446)">
      <path
         d="M 0,0 V 2.734"
         style="fill:#000000;fill-opacity:1;fill-rule:nonzero;stroke:none"
         id="path1079" />
    </g>
    <g
       id="g1081"
       transform="matrix(0.35277777,0,0,-0.35277777,177.60202,193.96446)">
      <path
         d="M 0,0 V 2.734"
         style="fill:none;stroke:#000000;stroke-width:0.35;stroke-linecap:butt;stroke-linejoin:round;stroke-miterlimit:10;stroke-dasharray:none;stroke-opacity:1"
         id="path1083" />
    </g>
    <g
       id="g1093"
       transform="matrix(0.35277777,0,0,-0.35277777,185.07703,193.96446)">
      <path
         d="M 0,0 V 2.734"
         style="fill:#000000;fill-opacity:1;fill-rule:nonzero;stroke:none"
         id="path1095" />
    </g>
    <g
       id="g1097"
       transform="matrix(0.35277777,0,0,-0.35277777,185.07703,193.96446)">
      <path
         d="M 0,0 V 2.734"
         style="fill:none;stroke:#000000;stroke-width:0.35;stroke-linecap:butt;stroke-linejoin:round;stroke-miterlimit:10;stroke-dasharray:none;stroke-opacity:1"
         id="path1099" />
    </g>
    <g
       id="g1101"
       transform="matrix(0.35277777,0,0,-0.35277777,185.07703,152.32329)">
      <path
         d="M 0,0 V -2.734"
         style="fill:#000000;fill-opacity:1;fill-rule:nonzero;stroke:none"
         id="path1103" />
    </g>
    <g
       id="g1105"
       transform="matrix(0.35277777,0,0,-0.35277777,185.07703,152.32329)">
      <path
         d="M 0,0 V -2.734"
         style="fill:none;stroke:#000000;stroke-width:0.35;stroke-linecap:butt;stroke-linejoin:round;stroke-miterlimit:10;stroke-dasharray:none;stroke-opacity:1"
         id="path1107" />
    </g>
    <g
       id="g1109"
       transform="matrix(0.35277777,0,0,-0.35277777,192.55275,193.96446)">
      <path
         d="M 0,0 V 2.734"
         style="fill:#000000;fill-opacity:1;fill-rule:nonzero;stroke:none"
         id="path1111" />
    </g>
    <g
       id="g1113"
       transform="matrix(0.35277777,0,0,-0.35277777,192.55275,193.96446)">
      <path
         d="M 0,0 V 2.734"
         style="fill:none;stroke:#000000;stroke-width:0.35;stroke-linecap:butt;stroke-linejoin:round;stroke-miterlimit:10;stroke-dasharray:none;stroke-opacity:1"
         id="path1115" />
    </g>
    <g
       id="g1117"
       transform="matrix(0.35277777,0,0,-0.35277777,192.55275,152.32329)">
      <path
         d="M 0,0 V -2.734"
         style="fill:#000000;fill-opacity:1;fill-rule:nonzero;stroke:none"
         id="path1119" />
    </g>
    <g
       id="g1121"
       transform="matrix(0.35277777,0,0,-0.35277777,192.55275,152.32329)">
      <path
         d="M 0,0 V -2.734"
         style="fill:none;stroke:#000000;stroke-width:0.35;stroke-linecap:butt;stroke-linejoin:round;stroke-miterlimit:10;stroke-dasharray:none;stroke-opacity:1"
         id="path1123" />
    </g>
    <g
       id="g1125"
       transform="matrix(0.35277777,0,0,-0.35277777,143.96291,193.96446)"
       style="fill:#000000">
      <path
         d="M 0,0 H 2.733"
         style="fill:#000000;fill-opacity:1;fill-rule:nonzero;stroke:none"
         id="path1127" />
    </g>
    <g
       id="g1133"
       transform="matrix(0.35277777,0,0,-0.35277777,140.44324,193.75528)"
       style="fill:#000000">
      <path
         d="M 0,0 C 0,0.532 0.078,0.99199997 0.24,1.3819999 0.39700001,1.765 0.616,2.055 0.88599997,2.2460001 1.0909999,2.395 1.303,2.473 1.531,2.473 1.885,2.473 2.211,2.289 2.5020001,1.921 2.8559999,1.467 3.033,0.85100001 3.033,0.071 3.033,-0.475 2.9549999,-0.935 2.8,-1.3179999 2.6429999,-1.7 2.438,-1.97 2.197,-2.1400001 1.956,-2.3110001 1.722,-2.395 1.496,-2.395 1.041,-2.395 0.67400001,-2.1329999 0.37599998,-1.609 0.121,-1.169 0,-0.63099997 0,0 m 0.681,-0.085 c 0,-0.65199998 0.077,-1.177 0.24,-1.581 0.127,-0.347 0.319,-0.5170001 0.5879999,-0.5170001 0.1210001,0 0.248,0.05 0.383,0.1630001 C 2.026,-1.906 2.1259999,-1.722 2.197,-1.4529999 2.303,-1.056 2.359,-0.496 2.359,0.226 c 0,0.53200001 -0.056,0.979 -0.1700001,1.34 -0.085,0.2619999 -0.19,0.4460001 -0.3179999,0.5599999 -0.099,0.078 -0.212,0.1200002 -0.347,0.1200002 -0.156,0 -0.297,-0.07 -0.419,-0.2120002 C 0.93599998,1.835 0.82200002,1.538 0.76499997,1.127 0.708,0.71600001 0.681,0.312 0.681,-0.085"
         style="fill:#000000;fill-opacity:1;fill-rule:nonzero;stroke:none"
         id="path1135" />
    </g>
    <g
       id="g1137"
       transform="matrix(0.35277777,0,0,-0.35277777,141.91609,194.33524)"
       style="fill:#000000">
      <path
         d="m 0,0 c 0.105,0 0.198,-0.043 0.269,-0.113 0.071,-0.079 0.113,-0.171 0.113,-0.26999998 0,-0.11300002 -0.042,-0.206 -0.113,-0.27599999 -0.078,-0.072 -0.17,-0.106 -0.269,-0.106 -0.107,0 -0.199,0.034 -0.27000001,0.106 -0.078,0.07 -0.11199999,0.16299997 -0.11199999,0.27599999 0,0.099 0.034,0.19099998 0.11199999,0.26999998 C -0.199,-0.043 -0.107,0 0,0"
         style="fill:#000000;fill-opacity:1;fill-rule:nonzero;stroke:none"
         id="path1139" />
    </g>
    <g
       id="g1141"
       transform="matrix(0.35277777,0,0,-0.35277777,142.31861,193.75528)"
       style="fill:#000000">
      <path
         d="M 0,0 C 0,0.532 0.078,0.99199997 0.241,1.3819999 0.396,1.765 0.615,2.055 0.885,2.2460001 1.092,2.395 1.304,2.473 1.531,2.473 c 0.354,0 0.679,-0.184 0.9699999,-0.552 0.355,-0.454 0.5310002,-1.06999999 0.5310002,-1.85 0,-0.546 -0.076,-1.006 -0.2330001,-1.3889999 C 2.6429999,-1.7 2.438,-1.97 2.197,-2.1400001 1.956,-2.3110001 1.722,-2.395 1.495,-2.395 1.04,-2.395 0.67299997,-2.1329999 0.37599998,-1.609 0.12,-1.169 0,-0.63099997 0,0 m 0.68,-0.085 c 0,-0.65199998 0.078,-1.177 0.241,-1.581 0.128,-0.347 0.319,-0.5170001 0.5879999,-0.5170001 0.12,0 0.248,0.05 0.383,0.1630001 0.135,0.114 0.234,0.298 0.3050001,0.5670001 C 2.303,-1.056 2.3599999,-0.496 2.3599999,0.226 c 0,0.53200001 -0.057,0.979 -0.1699998,1.34 C 2.105,1.8279999 1.998,2.0120001 1.871,2.1259999 c -0.099,0.078 -0.212,0.1200002 -0.347,0.1200002 -0.156,0 -0.2980001,-0.07 -0.419,-0.2120002 C 0.93599998,1.835 0.82200002,1.538 0.76499997,1.127 0.709,0.71600001 0.68,0.312 0.68,-0.085"
         style="fill:#000000;fill-opacity:1;fill-rule:nonzero;stroke:none"
         id="path1143" />
    </g>
    <g
       id="g1145"
       transform="matrix(0.35277777,0,0,-0.35277777,143.96291,187.02427)"
       style="fill:#000000">
      <path
         d="M 0,0 H 2.733"
         style="fill:#000000;fill-opacity:1;fill-rule:nonzero;stroke:none"
         id="path1147" />
    </g>
    <g
       id="g1149"
       transform="matrix(0.35277777,0,0,-0.35277777,143.96291,187.02427)"
       style="fill:#000000;stroke:#000000">
      <path
         d="M 0,0 H 2.733"
         style="fill:#000000;stroke:#000000;stroke-width:0.35;stroke-linecap:butt;stroke-linejoin:round;stroke-miterlimit:10;stroke-dasharray:none;stroke-opacity:1"
         id="path1151" />
    </g>
    <g
       id="g1153"
       transform="matrix(0.35277777,0,0,-0.35277777,140.44324,186.81507)"
       style="fill:#000000">
      <path
         d="M 0,0 C 0,0.53100001 0.078,0.99299998 0.24,1.3819999 0.39700001,1.765 0.616,2.056 0.88599997,2.247 1.0909999,2.3959999 1.303,2.473 1.531,2.473 1.885,2.473 2.211,2.29 2.5020001,1.921 2.8559999,1.467 3.033,0.85100001 3.033,0.07 3.033,-0.474 2.9549999,-0.935 2.8,-1.3179999 2.6429999,-1.7 2.438,-1.97 2.197,-2.141 1.956,-2.3110001 1.722,-2.395 1.496,-2.395 1.041,-2.395 0.67400001,-2.1329999 0.37599998,-1.609 0.121,-1.169 0,-0.63099997 0,0 m 0.681,-0.084 c 0,-0.65299998 0.077,-1.178 0.24,-1.582 0.127,-0.347 0.319,-0.5170001 0.5879999,-0.5170001 0.1210001,0 0.248,0.05 0.383,0.1630001 C 2.026,-1.9069999 2.1259999,-1.722 2.197,-1.4529999 2.303,-1.056 2.359,-0.495 2.359,0.227 2.359,0.75800001 2.303,1.205 2.1889999,1.566 2.1040001,1.8279999 1.9989999,2.013 1.871,2.1259999 1.7719999,2.2049999 1.659,2.247 1.524,2.247 1.368,2.247 1.227,2.1760001 1.105,2.0339999 0.93599998,1.835 0.82200002,1.538 0.76499997,1.128 0.708,0.71600001 0.681,0.312 0.681,-0.084"
         style="fill:#000000;fill-opacity:1;fill-rule:nonzero;stroke:none"
         id="path1155" />
    </g>
    <g
       id="g1157"
       transform="matrix(0.35277777,0,0,-0.35277777,141.91609,187.39503)"
       style="fill:#000000">
      <path
         d="m 0,0 c 0.105,0 0.198,-0.043 0.269,-0.113 0.071,-0.079 0.113,-0.171 0.113,-0.26999998 0,-0.11300002 -0.042,-0.206 -0.113,-0.27700003 -0.078,-0.07 -0.17,-0.10499996 -0.269,-0.10499996 -0.107,0 -0.199,0.035 -0.27000001,0.10499996 -0.078,0.071 -0.11199999,0.16400001 -0.11199999,0.27700003 0,0.099 0.034,0.19099998 0.11199999,0.26999998 C -0.199,-0.043 -0.107,0 0,0"
         style="fill:#000000;fill-opacity:1;fill-rule:nonzero;stroke:none"
         id="path1159" />
    </g>
    <g
       id="g1161"
       transform="matrix(0.35277777,0,0,-0.35277777,142.52075,186.13985)"
       style="fill:#000000">
      <path
         d="m 0,0 1.14,0.56 h 0.115 v -3.9630001 c 0,-0.2689998 0.007,-0.431 0.035,-0.4949999 l 0.134,-0.1489999 c 0.071,-0.035 0.214,-0.056 0.426,-0.056 V -4.2309997 H 0.085 v 0.1279998 c 0.22,0 0.362,0.021 0.425,0.056 l 0.134,0.135 c 0.029,0.056 0.043,0.227 0.043,0.5089998 V -0.871 c 0,0.339 -0.014,0.559 -0.035,0.659 L 0.568,-0.05 0.411,0 C 0.327,0 0.205,-0.036 0.057,-0.107 L 0,0"
         style="fill:#000000;fill-opacity:1;fill-rule:nonzero;stroke:none"
         id="path1163" />
    </g>
    <g
       id="g1165"
       transform="matrix(0.35277777,0,0,-0.35277777,143.96291,180.08406)"
       style="fill:#000000">
      <path
         d="M 0,0 H 2.733"
         style="fill:#000000;fill-opacity:1;fill-rule:nonzero;stroke:none"
         id="path1167" />
    </g>
    <g
       id="g1169"
       transform="matrix(0.35277777,0,0,-0.35277777,143.96291,180.08406)"
       style="fill:#000000;stroke:#000000">
      <path
         d="M 0,0 H 2.733"
         style="fill:#000000;stroke:#000000;stroke-width:0.35;stroke-linecap:butt;stroke-linejoin:round;stroke-miterlimit:10;stroke-dasharray:none;stroke-opacity:1"
         id="path1171" />
    </g>
    <g
       id="g1173"
       transform="matrix(0.35277777,0,0,-0.35277777,140.44324,179.87488)"
       style="fill:#000000">
      <path
         d="M 0,0 C 0,0.53100001 0.078,0.99299998 0.24,1.3819999 0.39700001,1.765 0.616,2.056 0.88599997,2.2460001 1.0909999,2.395 1.303,2.473 1.531,2.473 1.885,2.473 2.211,2.289 2.5020001,1.921 2.8559999,1.467 3.033,0.85100001 3.033,0.07 3.033,-0.475 2.9549999,-0.93599998 2.8,-1.3179999 2.6429999,-1.7 2.438,-1.97 2.197,-2.141 1.956,-2.3110001 1.722,-2.3959999 1.496,-2.3959999 c -0.455,0 -0.82199999,0.263 -1.12000002,0.7869999 C 0.121,-1.169 0,-0.63099997 0,0 m 0.681,-0.084 c 0,-0.652 0.077,-1.178 0.24,-1.582 0.127,-0.347 0.319,-0.5170001 0.5879999,-0.5170001 0.1210001,0 0.248,0.05 0.383,0.1630001 C 2.026,-1.9069999 2.1259999,-1.722 2.197,-1.4529999 2.303,-1.056 2.359,-0.496 2.359,0.226 c 0,0.53200001 -0.056,0.979 -0.1700001,1.34 -0.085,0.2619999 -0.19,0.447 -0.3179999,0.5599999 -0.099,0.079 -0.212,0.1200002 -0.347,0.1200002 -0.156,0 -0.297,-0.07 -0.419,-0.2120002 C 0.93599998,1.835 0.82200002,1.538 0.76499997,1.127 0.708,0.71600001 0.681,0.312 0.681,-0.084"
         style="fill:#000000;fill-opacity:1;fill-rule:nonzero;stroke:none"
         id="path1175" />
    </g>
    <g
       id="g1177"
       transform="matrix(0.35277777,0,0,-0.35277777,141.91609,180.45518)"
       style="fill:#000000">
      <path
         d="m 0,0 c 0.105,0 0.198,-0.042 0.269,-0.113 0.071,-0.078 0.113,-0.17 0.113,-0.269 0,-0.113 -0.042,-0.206 -0.113,-0.27699997 -0.078,-0.071 -0.17,-0.106 -0.269,-0.106 -0.107,0 -0.199,0.035 -0.27000001,0.106 C -0.34799998,-0.588 -0.382,-0.495 -0.382,-0.382 c 0,0.099 0.034,0.191 0.11199999,0.269 C -0.199,-0.042 -0.107,0 0,0"
         style="fill:#000000;fill-opacity:1;fill-rule:nonzero;stroke:none"
         id="path1179" />
    </g>
    <g
       id="g1181"
       transform="matrix(0.35277777,0,0,-0.35277777,143.37341,180.37511)"
       style="fill:#000000">
      <path
         d="m 0,0 -0.327,-0.89899999 h -2.7699999 v 0.12699998 C -2.2820001,-0.035 -1.707,0.57499998 -1.375,1.049 c 0.326,0.469 0.49699998,0.9 0.49699998,1.29 0,0.2980001 -0.093,0.5380001 -0.27699998,0.73 -0.185,0.1919999 -0.397,0.2909999 -0.6449999,0.2909999 -0.234,0 -0.4390002,-0.071 -0.6240001,-0.2059999 C -2.6070001,3.019 -2.743,2.822 -2.8280001,2.566 h -0.128 C -2.898,2.9920001 -2.756,3.3169999 -2.516,3.5450001 -2.2750001,3.7709999 -1.977,3.891 -1.622,3.891 c 0.382,0 0.701,-0.1270001 0.956,-0.368 0.254,-0.2479999 0.382,-0.5380001 0.382,-0.865 0,-0.241 -0.056,-0.474 -0.163,-0.7150001 C -0.62400001,1.566 -0.89899999,1.1699999 -1.2819999,0.759 c -0.5750001,-0.631 -0.936,-1.007 -1.078,-1.134 H -1.135 c 0.25,0 0.426,0.007 0.52700003,0.029 0.098,0.014 0.18999995,0.049 0.27499997,0.10599998 0.078,0.056 0.148,0.134 0.206,0.24 L 0,0"
         style="fill:#000000;fill-opacity:1;fill-rule:nonzero;stroke:none"
         id="path1183" />
    </g>
    <g
       id="g1185"
       transform="matrix(0.35277777,0,0,-0.35277777,143.96291,173.14387)"
       style="fill:#000000">
      <path
         d="M 0,0 H 2.733"
         style="fill:#000000;fill-opacity:1;fill-rule:nonzero;stroke:none"
         id="path1187" />
    </g>
    <g
       id="g1189"
       transform="matrix(0.35277777,0,0,-0.35277777,143.96291,173.14387)"
       style="fill:#000000;stroke:#000000">
      <path
         d="M 0,0 H 2.733"
         style="fill:#000000;stroke:#000000;stroke-width:0.35;stroke-linecap:butt;stroke-linejoin:round;stroke-miterlimit:10;stroke-dasharray:none;stroke-opacity:1"
         id="path1191" />
    </g>
    <g
       id="g1193"
       transform="matrix(0.35277777,0,0,-0.35277777,140.44324,172.93467)"
       style="fill:#000000">
      <path
         d="M 0,0 C 0,0.53100001 0.078,0.99199997 0.24,1.3819999 0.39700001,1.765 0.616,2.055 0.88599997,2.2460001 1.0909999,2.394 1.303,2.473 1.531,2.473 1.885,2.473 2.211,2.29 2.5020001,1.921 2.8559999,1.467 3.033,0.85100001 3.033,0.07 3.033,-0.474 2.9549999,-0.93599998 2.8,-1.3179999 2.6429999,-1.701 2.438,-1.97 2.197,-2.141 1.956,-2.3110001 1.722,-2.3959999 1.496,-2.3959999 c -0.455,0 -0.82199999,0.263 -1.12000002,0.7869999 C 0.121,-1.169 0,-0.63099997 0,0 m 0.681,-0.085 c 0,-0.65199998 0.077,-1.177 0.24,-1.582 0.127,-0.346 0.319,-0.517 0.5879999,-0.517 0.1210001,0 0.248,0.051 0.383,0.164 C 2.026,-1.9069999 2.1259999,-1.722 2.197,-1.4529999 2.303,-1.056 2.359,-0.497 2.359,0.226 c 0,0.53200001 -0.056,0.979 -0.1700001,1.34 -0.085,0.2619999 -0.19,0.4460001 -0.3179999,0.559 -0.099,0.08 -0.212,0.1210001 -0.347,0.1210001 -0.156,0 -0.297,-0.071 -0.419,-0.2120002 C 0.93599998,1.834 0.82200002,1.538 0.76499997,1.127 0.708,0.71600001 0.681,0.31099998 0.681,-0.085"
         style="fill:#000000;fill-opacity:1;fill-rule:nonzero;stroke:none"
         id="path1195" />
    </g>
    <g
       id="g1197"
       transform="matrix(0.35277777,0,0,-0.35277777,141.91609,173.51465)"
       style="fill:#000000">
      <path
         d="m 0,0 c 0.105,0 0.198,-0.042 0.269,-0.113 0.071,-0.078 0.113,-0.171 0.113,-0.269 0,-0.114 -0.042,-0.20699998 -0.113,-0.27699997 -0.078,-0.071 -0.17,-0.106 -0.269,-0.106 -0.107,0 -0.199,0.035 -0.27000001,0.106 C -0.34799998,-0.58899998 -0.382,-0.496 -0.382,-0.382 c 0,0.098 0.034,0.191 0.11199999,0.269 C -0.199,-0.042 -0.107,0 0,0"
         style="fill:#000000;fill-opacity:1;fill-rule:nonzero;stroke:none"
         id="path1199" />
    </g>
    <g
       id="g1201"
       transform="matrix(0.35277777,0,0,-0.35277777,142.356,172.41222)"
       style="fill:#000000">
      <path
         d="M 0,0 C 0.128,0.312 0.298,0.56 0.50300001,0.73000001 0.708,0.89999997 0.963,0.99199997 1.268,0.99199997 1.644,0.99199997 1.9349999,0.865 2.1329999,0.62400001 2.2820001,0.44 2.359,0.241 2.359,0.042 2.359,-0.305 2.1400001,-0.65899997 1.715,-1.02 1.9989999,-1.1339999 2.2179999,-1.297 2.3670001,-1.51 2.516,-1.722 2.595,-1.962 2.595,-2.2460001 2.595,-2.658 2.46,-3.0039999 2.204,-3.302 1.864,-3.6849999 1.3819999,-3.8759999 0.74299997,-3.8759999 0.426,-3.8759999 0.212,-3.8329999 0.099,-3.763 -0.015,-3.691 -0.07,-3.6070001 -0.07,-3.5079999 L 0.007,-3.338 0.206,-3.261 0.375,-3.288 c 0.044,-0.014 0.12800001,-0.057 0.26999998,-0.1279998 0.134,-0.071 0.23300004,-0.1140001 0.29000002,-0.128 0.085,-0.028 0.1709999,-0.035 0.27,-0.035 0.234,0 0.439,0.085 0.616,0.27 0.171,0.1830001 0.2619999,0.3959999 0.2619999,0.651 0,0.178 -0.041,0.355 -0.1199998,0.5320001 -0.064,0.127 -0.1280001,0.219 -0.1980001,0.2909999 -0.099,0.091 -0.241,0.176 -0.411,0.255 -0.17,0.07 -0.349,0.113 -0.53199998,0.113 H 0.71600001 v 0.099 c 0.176,0.021 0.36099999,0.086 0.54599999,0.199 0.184,0.1060001 0.3109999,0.23300002 0.397,0.39000002 C 1.7439999,-0.63 1.7869999,-0.461 1.7869999,-0.276 c 0,0.233 -0.079,0.425 -0.2279999,0.574 C 1.4099999,0.44 1.227,0.518 1.005,0.518 0.65200001,0.518 0.354,0.327 0.113,-0.057 L 0,0"
         style="fill:#000000;fill-opacity:1;fill-rule:nonzero;stroke:none"
         id="path1203" />
    </g>
    <g
       id="g1205"
       transform="matrix(0.35277777,0,0,-0.35277777,143.96291,166.20368)"
       style="fill:#000000">
      <path
         d="M 0,0 H 2.733"
         style="fill:#000000;fill-opacity:1;fill-rule:nonzero;stroke:none"
         id="path1207" />
    </g>
    <g
       id="g1209"
       transform="matrix(0.35277777,0,0,-0.35277777,143.96291,166.20368)"
       style="fill:#000000;stroke:#000000">
      <path
         d="M 0,0 H 2.733"
         style="fill:#000000;stroke:#000000;stroke-width:0.35;stroke-linecap:butt;stroke-linejoin:round;stroke-miterlimit:10;stroke-dasharray:none;stroke-opacity:1"
         id="path1211" />
    </g>
    <g
       id="g1213"
       transform="matrix(0.35277777,0,0,-0.35277777,140.44324,165.99448)"
       style="fill:#000000">
      <path
         d="M 0,0 C 0,0.53100001 0.078,0.99199997 0.24,1.3819999 0.39700001,1.764 0.616,2.056 0.88599997,2.2460001 1.0909999,2.395 1.303,2.473 1.531,2.473 1.885,2.473 2.211,2.289 2.5020001,1.921 2.8559999,1.4659999 3.033,0.85100001 3.033,0.07 3.033,-0.475 2.9549999,-0.93599998 2.8,-1.3179999 2.6429999,-1.701 2.438,-1.97 2.197,-2.1400001 c -0.241,-0.171 -0.475,-0.2559998 -0.701,-0.2559998 -0.455,0 -0.82199999,0.263 -1.12000002,0.7869999 C 0.121,-1.169 0,-0.63099997 0,0 m 0.681,-0.084 c 0,-0.65299998 0.077,-1.178 0.24,-1.582 0.127,-0.347 0.319,-0.5170001 0.5879999,-0.5170001 0.1210001,0 0.248,0.05 0.383,0.1620002 0.1340001,0.114 0.234,0.2979999 0.3050001,0.568 C 2.303,-1.056 2.359,-0.496 2.359,0.226 c 0,0.53200001 -0.056,0.979 -0.1700001,1.34 -0.085,0.2619999 -0.19,0.447 -0.3179999,0.5599999 -0.099,0.079 -0.212,0.1200002 -0.347,0.1200002 -0.156,0 -0.297,-0.07 -0.419,-0.2120002 C 0.93599998,1.835 0.82200002,1.539 0.76499997,1.127 0.708,0.71600001 0.681,0.312 0.681,-0.084"
         style="fill:#000000;fill-opacity:1;fill-rule:nonzero;stroke:none"
         id="path1215" />
    </g>
    <g
       id="g1217"
       transform="matrix(0.35277777,0,0,-0.35277777,141.91609,166.57444)"
       style="fill:#000000">
      <path
         d="m 0,0 c 0.105,0 0.198,-0.042 0.269,-0.113 0.071,-0.078 0.113,-0.171 0.113,-0.269 0,-0.114 -0.042,-0.206 -0.113,-0.27699997 -0.078,-0.071 -0.17,-0.106 -0.269,-0.106 -0.107,0 -0.199,0.035 -0.27000001,0.106 C -0.34799998,-0.588 -0.382,-0.496 -0.382,-0.382 c 0,0.098 0.034,0.191 0.11199999,0.269 C -0.199,-0.042 -0.107,0 0,0"
         style="fill:#000000;fill-opacity:1;fill-rule:nonzero;stroke:none"
         id="path1219" />
    </g>
    <g
       id="g1221"
       transform="matrix(0.35277777,0,0,-0.35277777,143.39105,166.20192)"
       style="fill:#000000">
      <path
         d="m 0,0 v -0.489 h -0.63099997 v -1.24 H -1.1979999 v 1.24 h -1.984 V -0.05 L -1.006,3.062 h 0.37500003 V 0 H 0 M -1.1979999,0 V 2.332 L -2.8499999,0 h 1.652"
         style="fill:#000000;fill-opacity:1;fill-rule:nonzero;stroke:none"
         id="path1223" />
    </g>
    <g
       id="g1225"
       transform="matrix(0.35277777,0,0,-0.35277777,143.96291,159.26348)"
       style="fill:#000000">
      <path
         d="M 0,0 H 2.733"
         style="fill:#000000;fill-opacity:1;fill-rule:nonzero;stroke:none"
         id="path1227" />
    </g>
    <g
       id="g1229"
       transform="matrix(0.35277777,0,0,-0.35277777,143.96291,159.26348)"
       style="fill:#000000;stroke:#000000">
      <path
         d="M 0,0 H 2.733"
         style="fill:#000000;stroke:#000000;stroke-width:0.35;stroke-linecap:butt;stroke-linejoin:round;stroke-miterlimit:10;stroke-dasharray:none;stroke-opacity:1"
         id="path1231" />
    </g>
    <g
       id="g1233"
       transform="matrix(0.35277777,0,0,-0.35277777,140.44324,159.05427)"
       style="fill:#000000">
      <path
         d="M 0,0 C 0,0.532 0.078,0.99299998 0.24,1.3819999 0.39700001,1.765 0.616,2.056 0.88599997,2.247 1.0909999,2.3959999 1.303,2.473 1.531,2.473 1.885,2.473 2.211,2.29 2.5020001,1.921 2.8559999,1.467 3.033,0.85100001 3.033,0.07 3.033,-0.474 2.9549999,-0.935 2.8,-1.3179999 2.6429999,-1.7 2.438,-1.97 2.197,-2.1400001 1.956,-2.3099999 1.722,-2.395 1.496,-2.395 1.041,-2.395 0.67400001,-2.1329999 0.37599998,-1.608 0.121,-1.169 0,-0.63 0,0 m 0.681,-0.084 c 0,-0.652 0.077,-1.177 0.24,-1.5809999 C 1.048,-2.013 1.24,-2.1830001 1.5089999,-2.1830001 c 0.1210001,0 0.248,0.05 0.383,0.1630001 0.1340001,0.114 0.234,0.298 0.3050001,0.568 0.106,0.3970001 0.162,0.956 0.162,1.679 0,0.53100001 -0.056,0.978 -0.1700001,1.339 -0.085,0.2619999 -0.19,0.447 -0.3179999,0.5610001 C 1.7719999,2.2049999 1.659,2.247 1.524,2.247 1.368,2.247 1.227,2.1760001 1.105,2.0339999 0.93599998,1.836 0.82200002,1.539 0.76499997,1.128 0.708,0.71600001 0.681,0.313 0.681,-0.084"
         style="fill:#000000;fill-opacity:1;fill-rule:nonzero;stroke:none"
         id="path1235" />
    </g>
    <g
       id="g1237"
       transform="matrix(0.35277777,0,0,-0.35277777,141.91609,159.6346)"
       style="fill:#000000">
      <path
         d="m 0,0 c 0.105,0 0.198,-0.042 0.269,-0.113 0.071,-0.078 0.113,-0.17 0.113,-0.269 0,-0.113 -0.042,-0.206 -0.113,-0.27699997 -0.078,-0.071 -0.17,-0.106 -0.269,-0.106 -0.107,0 -0.199,0.035 -0.27000001,0.106 C -0.34799998,-0.588 -0.382,-0.495 -0.382,-0.382 c 0,0.099 0.034,0.191 0.11199999,0.269 C -0.199,-0.042 -0.107,0 0,0"
         style="fill:#000000;fill-opacity:1;fill-rule:nonzero;stroke:none"
         id="path1239" />
    </g>
    <g
       id="g1241"
       transform="matrix(0.35277777,0,0,-0.35277777,143.31344,158.21679)"
       style="fill:#000000">
      <path
         d="m 0,0 -0.269,-0.588 h -1.41 l -0.313,-0.631 c 0.6100001,-0.091 1.099,-0.319 1.45300003,-0.68 C -0.233,-2.211 -0.078,-2.5799999 -0.078,-3.0039999 c 0,-0.2490001 -0.05,-0.4750002 -0.148,-0.688 C -0.326,-3.905 -0.454,-4.0809998 -0.60900001,-4.23 -0.76599997,-4.3800001 -0.92900003,-4.4990001 -1.113,-4.585 c -0.2689999,-0.1209998 -0.5389999,-0.184 -0.815,-0.184 -0.283,0 -0.49,0.049 -0.6170001,0.1420002 -0.1269998,0.091 -0.191,0.1979999 -0.191,0.3109998 l 0.079,0.1700001 0.1970001,0.078 0.1560001,-0.028 c 0.043,-0.021 0.1209998,-0.072 0.2349999,-0.1419997 0.17,-0.1199999 0.347,-0.1770001 0.525,-0.1770001 0.269,0 0.502,0.099 0.70799997,0.3049999 0.20500006,0.197 0.31200005,0.4460001 0.31200005,0.743 0,0.2840002 -0.092,0.546 -0.27700002,0.7940002 C -0.98500001,-2.332 -1.234,-2.1400001 -1.552,-2.006 c -0.254,0.1 -0.5950001,0.164 -1.0279999,0.185 L -1.679,0 H 0"
         style="fill:#000000;fill-opacity:1;fill-rule:nonzero;stroke:none"
         id="path1243" />
    </g>
    <g
       id="g1245"
       transform="matrix(0.35277777,0,0,-0.35277777,140.44324,152.11409)"
       style="fill:#000000">
      <path
         d="M 0,0 C 0,0.532 0.078,0.99299998 0.24,1.3819999 0.39700001,1.765 0.616,2.056 0.88599997,2.247 1.0909999,2.395 1.303,2.473 1.531,2.473 1.885,2.473 2.211,2.29 2.5020001,1.921 2.8559999,1.467 3.033,0.85100001 3.033,0.07 3.033,-0.474 2.9549999,-0.93599998 2.8,-1.3179999 2.6429999,-1.701 2.438,-1.97 2.197,-2.1400001 c -0.241,-0.171 -0.475,-0.2559998 -0.701,-0.2559998 -0.455,0 -0.82199999,0.263 -1.12000002,0.7869999 C 0.121,-1.169 0,-0.63099997 0,0 m 0.681,-0.085 c 0,-0.65199998 0.077,-1.177 0.24,-1.581 0.127,-0.347 0.319,-0.5170001 0.5879999,-0.5170001 0.1210001,0 0.248,0.05 0.383,0.1630001 C 2.026,-1.9069999 2.1259999,-1.722 2.197,-1.4529999 2.303,-1.056 2.359,-0.496 2.359,0.227 2.359,0.75800001 2.303,1.205 2.1889999,1.566 2.1040001,1.8279999 1.9989999,2.013 1.871,2.1259999 1.7719999,2.2049999 1.659,2.247 1.524,2.247 1.368,2.247 1.227,2.1760001 1.105,2.0339999 0.93599998,1.835 0.82200002,1.539 0.76499997,1.127 0.708,0.71600001 0.681,0.313 0.681,-0.085"
         style="fill:#000000;fill-opacity:1;fill-rule:nonzero;stroke:none"
         id="path1247" />
    </g>
    <g
       id="g1249"
       transform="matrix(0.35277777,0,0,-0.35277777,141.91609,152.69441)"
       style="fill:#000000">
      <path
         d="m 0,0 c 0.105,0 0.198,-0.042 0.269,-0.113 0.071,-0.078 0.113,-0.17 0.113,-0.269 0,-0.114 -0.042,-0.206 -0.113,-0.27699997 -0.078,-0.071 -0.17,-0.106 -0.269,-0.106 -0.107,0 -0.199,0.035 -0.27000001,0.106 C -0.34799998,-0.588 -0.382,-0.496 -0.382,-0.382 c 0,0.099 0.034,0.191 0.11199999,0.269 C -0.199,-0.042 -0.107,0 0,0"
         style="fill:#000000;fill-opacity:1;fill-rule:nonzero;stroke:none"
         id="path1251" />
    </g>
    <g
       id="g1253"
       transform="matrix(0.35277777,0,0,-0.35277777,143.34837,151.24166)"
       style="fill:#000000">
      <path
         d="M 0,0 V -0.127 C -0.305,-0.163 -0.55299997,-0.227 -0.74400001,-0.312 -0.94199997,-0.40400001 -1.135,-0.54500001 -1.3179999,-0.73000001 -1.503,-0.91399997 -1.659,-1.127 -1.786,-1.354 -1.913,-1.58 -2.013,-1.8559999 -2.0899999,-2.1689999 -1.765,-1.942 -1.432,-1.8279999 -1.092,-1.8279999 c 0.31999999,0 0.596,-0.1350002 0.83,-0.39 C -0.028,-2.473 0.092,-2.806 0.092,-3.21 c 0,-0.3970001 -0.12,-0.751 -0.354,-1.0780001 -0.284,-0.3889999 -0.66599997,-0.5809998 -1.134,-0.5809998 -0.326,0 -0.596,0.099 -0.814,0.3119997 -0.441,0.4110003 -0.661,0.9500001 -0.661,1.6090002 0,0.418 0.079,0.8150001 0.2499999,1.198 0.168,0.375 0.4110001,0.708 0.7220001,1.00700003 C -1.588,-0.454 -1.2819999,-0.255 -1,-0.156 -0.71600001,-0.057 -0.447,0 -0.199,0 H 0 m -2.148,-2.424 c -0.042,-0.3120001 -0.062,-0.5669999 -0.062,-0.75 0,-0.2279999 0.034,-0.4689999 0.1200001,-0.724 0.077,-0.2619998 0.198,-0.4669998 0.3679999,-0.6159999 C -1.608,-4.6269998 -1.467,-4.677 -1.297,-4.677 c 0.198,0 0.38300003,0.092 0.53899999,0.283 0.15600001,0.184 0.241,0.4539999 0.241,0.809 0,0.3889999 -0.085,0.7290001 -0.241,1.0199999 -0.15599996,0.283 -0.38299999,0.4320002 -0.66699989,0.4320002 -0.085,0 -0.1830001,-0.021 -0.2820001,-0.057 -0.1,-0.035 -0.249,-0.1129999 -0.441,-0.2339999"
         style="fill:#000000;fill-opacity:1;fill-rule:nonzero;stroke:none"
         id="path1255" />
    </g>
    <g
       id="g1257"
       transform="matrix(0.35277777,0,0,-0.35277777,136.08609,189.73218)"
       style="fill:#000000">
      <path
         d="M 0,0 H 1.7849999 V -0.149 C 1.317,-0.257 0.96499997,-0.468 0.717,-0.77200001 0.468,-1.077 0.343,-1.419 0.343,-1.801 c 0,-0.327 0.093,-0.623 0.28000002,-0.89 C 0.81,-2.963 1.051,-3.1570001 1.349,-3.2839999 c 0.381,-0.1630001 0.8099999,-0.24 1.2769999,-0.24 0.4680002,0 0.8890002,0.054 1.2640002,0.171 0.3809998,0.118 0.6699998,0.3039999 0.8570001,0.5529999 0.1939998,0.25 0.2889996,0.5690001 0.2889996,0.9670001 0,0.3269999 -0.071,0.6239999 -0.211,0.89699992 -0.1399999,0.26499998 -0.381,0.553 -0.7339997,0.84999998 H 4.5370002 C 4.8400001,-0.37400001 5.059,-0.67799997 5.1919999,-0.991 5.316,-1.303 5.3850002,-1.6699999 5.3850002,-2.0899999 5.3850002,-2.6429999 5.277,-3.135 5.059,-3.556 4.8400001,-3.9849999 4.5289998,-4.3119998 4.1160002,-4.546 3.7030001,-4.7789998 3.2579999,-4.888 2.79,-4.888 2.299,-4.888 1.832,-4.7639999 1.395,-4.506 0.958,-4.2490001 0.616,-3.8989999 0.367,-3.461 0.124,-3.0250001 0,-2.566 0,-2.0669999 0,-1.707 0.077,-1.326 0.234,-0.92000001 c 0.093,0.23400004 0.14000001,0.38200003 0.14000001,0.444 L 0.28799998,-0.266 C 0.226,-0.204 0.132,-0.165 0,-0.149 V 0"
         style="fill:#000000;fill-opacity:1;fill-rule:nonzero;stroke:none"
         id="path1259" />
    </g>
    <g
       id="g1261"
       transform="matrix(0.35277777,0,0,-0.35277777,136.12665,188.97443)"
       style="fill:#000000">
      <path
         d="M 0,0 H 2.059 C 1.855,0.195 1.7079999,0.373 1.623,0.53899997 1.5449999,0.694 1.498,0.866 1.498,1.044 c 0,0.219 0.07,0.4139999 0.196,0.57 C 1.817,1.77 1.965,1.878 2.1370001,1.933 2.309,1.98 2.5969999,2.011 3.003,2.011 h 1.3869998 c 0.2730003,0 0.4440003,0.024 0.507,0.078 0.071,0.048 0.1090002,0.148 0.125,0.305 H 5.1620002 V 0.592 H 5.0219998 c -0.016,0.125 -0.064,0.21899998 -0.1479997,0.28899997 -0.063,0.039 -0.2270003,0.063 -0.4840003,0.063 L 2.8,0.944 C 2.5109999,0.944 2.332,0.928 2.2550001,0.912 L 2.075,0.795 2.0120001,0.60900001 C 2.0120001,0.50700001 2.052,0.405 2.1229999,0.312 2.191,0.219 2.309,0.108 2.48,0 h 1.9099998 c 0.257,0 0.4120002,0.016 0.475,0.063 0.093,0.045 0.1410002,0.141 0.157,0.296 H 5.1620002 V -1.45 H 5.0219998 c -0.016,0.149 -0.064,0.258 -0.1399999,0.32 -0.055,0.038 -0.2189998,0.062 -0.4920001,0.062 H 0.773 c -0.26499999,0 -0.436,-0.031 -0.5,-0.077 C 0.212,-1.192 0.165,-1.293 0.141,-1.45 H 0 V 0"
         style="fill:#000000;fill-opacity:1;fill-rule:nonzero;stroke:none"
         id="path1263" />
    </g>
    <g
       id="g1265"
       transform="matrix(0.35277777,0,0,-0.35277777,137.27389,186.89374)"
       style="fill:#000000">
      <path
         d="m 0,0 v -1.949 c 0.47600001,0.015 0.85000002,0.14 1.122,0.375 0.2109999,0.171 0.3129999,0.3810001 0.3129999,0.63099999 0,0.15500004 -0.04,0.287 -0.125,0.41300004 C 1.232,-0.405 1.077,-0.27200001 0.85000002,-0.125 l 0.086,0.125 C 1.3329999,-0.195 1.613,-0.405 1.771,-0.639 1.926,-0.87300002 2.0109999,-1.146 2.0109999,-1.45 2.0109999,-1.9809999 1.817,-2.3770001 1.411,-2.6429999 c -0.327,-0.2180002 -0.73400003,-0.328 -1.224,-0.328 -0.592,0 -1.06000002,0.157 -1.411,0.476 C -1.575,-2.175 -1.7539999,-1.801 -1.7539999,-1.365 c 0,0.36 0.1489999,0.672 0.444,0.936 C -1.014,-0.165 -0.57599997,-0.017 0,0 m -0.249,-0.93599998 c -0.40599997,0 -0.68699998,-0.022 -0.8419999,-0.069 C -1.2489999,-1.053 -1.364,-1.1139999 -1.442,-1.209 l -0.063,-0.209 c 0,-0.141 0.063,-0.25 0.188,-0.3280001 C -1.084,-1.901 -0.77200001,-1.973 -0.38100002,-1.973 H -0.249 v 1.03700002"
         style="fill:#000000;fill-opacity:1;fill-rule:nonzero;stroke:none"
         id="path1267" />
    </g>
    <g
       id="g1269"
       transform="matrix(0.35277777,0,0,-0.35277777,136.6911,186.21429)"
       style="fill:#000000">
      <path
         d="M 0,0 H 0.81199997 C 0.444,0.233 0.204,0.444 0.077,0.625 c -0.116,0.17 -0.178,0.34100001 -0.178,0.513 0,0.14 0.047,0.25 0.133,0.335 0.085,0.086 0.21,0.132 0.36500001,0.132 C 0.569,1.605 0.70200001,1.559 0.795,1.4809999 0.889,1.395 0.93599998,1.294 0.93599998,1.1849999 c 0,-0.1409999 -0.039,-0.25699993 -0.12400001,-0.3519999 -0.088,-0.101 -0.134,-0.16399999 -0.149,-0.17800003 l -0.024,-0.086 0.085,-0.21 C 0.81199997,0.249 0.93599998,0.172 1.0909999,0.124 1.34,0.039 1.613,0 1.91,0 h 0.8179999 l 0.211,0.008 c 0.148,0 0.2420001,0.008 0.282,0.023 L 3.369,0.164 c 0.03,0.062 0.054,0.164 0.054,0.304 H 3.5629999 V -1.45 H 3.423 c -0.008,0.148 -0.047,0.249 -0.125,0.304 -0.07,0.053 -0.2580001,0.085 -0.5700002,0.085 H 0.75699991 C 0.55400002,-1.061 0.429,-1.077 0.367,-1.093 L 0.218,-1.201 C 0.188,-1.248 0.164,-1.334 0.148,-1.45 H 0 V 0"
         style="fill:#000000;fill-opacity:1;fill-rule:nonzero;stroke:none"
         id="path1271" />
    </g>
    <g
       id="g1273"
       transform="matrix(0.35277777,0,0,-0.35277777,137.27389,184.45145)"
       style="fill:#000000">
      <path
         d="m 0,0 v -1.95 c 0.47600001,0.016 0.85000002,0.141 1.122,0.376 0.2109999,0.171 0.3129999,0.3810001 0.3129999,0.63099999 0,0.15500004 -0.04,0.287 -0.125,0.41300004 C 1.232,-0.405 1.077,-0.273 0.85000002,-0.125 l 0.086,0.125 C 1.3329999,-0.195 1.613,-0.405 1.771,-0.639 1.926,-0.87300002 2.0109999,-1.146 2.0109999,-1.45 2.0109999,-1.98 1.817,-2.378 1.411,-2.6429999 c -0.327,-0.2180002 -0.73400003,-0.328 -1.224,-0.328 -0.592,0 -1.06000002,0.157 -1.411,0.4769999 -0.351,0.319 -0.5299999,0.692 -0.5299999,1.13 0,0.359 0.1489999,0.67 0.444,0.935 C -1.014,-0.164 -0.57599997,-0.016 0,0 m -0.249,-0.93599998 c -0.40599997,0 -0.68699998,-0.022 -0.8419999,-0.069 C -1.2489999,-1.053 -1.364,-1.1139999 -1.442,-1.209 l -0.063,-0.209 c 0,-0.141 0.063,-0.25 0.188,-0.3280001 C -1.084,-1.9019999 -0.77200001,-1.973 -0.38100002,-1.973 H -0.249 v 1.03700002"
         style="fill:#000000;fill-opacity:1;fill-rule:nonzero;stroke:none"
         id="path1275" />
    </g>
    <g
       id="g1277"
       transform="matrix(0.35277777,0,0,-0.35277777,136.6911,183.78048)"
       style="fill:#000000">
      <path
         d="M 0,0 H 0.468 C 0.26499998,0.18 0.124,0.35 0.032,0.52200001 -0.054,0.693 -0.101,0.87300002 -0.101,1.067 c 0,0.227 0.07,0.4139999 0.195,0.5699999 C 0.218,1.792 0.382,1.894 0.569,1.949 0.717,1.987 0.99800001,2.011 1.403,2.011 h 1.38 c 0.28,0 0.4519999,0.023 0.5150001,0.071 0.071,0.046 0.109,0.155 0.125,0.3109999 H 3.563 V 0.592 H 3.4230001 c -0.016,0.13300001 -0.071,0.22600001 -0.1650002,0.28899997 -0.062,0.0380001 -0.2179999,0.062 -0.4749999,0.062 H 1.201 c -0.289,0 -0.46800003,-0.015 -0.54499999,-0.039 L 0.47600001,0.787 0.414,0.60799997 C 0.414,0.389 0.569,0.187 0.88099997,0 H 2.783 c 0.273,0 0.4449999,0.023 0.5150001,0.07 0.071,0.046 0.109,0.141 0.125,0.28 H 3.563 v -1.8 H 3.4230001 c -0.016,0.148 -0.063,0.2570001 -0.1400001,0.319 -0.055,0.039 -0.22,0.062 -0.5,0.062 H 0.77999997 C 0.514,-1.069 0.343,-1.099 0.273,-1.146 0.211,-1.1929999 0.164,-1.294 0.148,-1.45 H 0 V 0"
         style="fill:#000000;fill-opacity:1;fill-rule:nonzero;stroke:none"
         id="path1279" />
    </g>
    <g
       id="g1281"
       transform="matrix(0.35277777,0,0,-0.35277777,136.12665,182.2526)"
       style="fill:#000000">
      <path
         d="M 0,0 H 3.3929999 L 2.582,0.82599997 C 2.4260001,0.99800001 2.309,1.1 2.2309999,1.146 L 2.0120001,1.208 1.8409999,1.122 C 1.794,1.0679999 1.763,0.958 1.747,0.795 H 1.599 V 2.394 H 1.747 C 1.755,2.2379999 1.794,2.105 1.855,1.995 1.918,1.878 2.1140001,1.6519999 2.4330001,1.325 L 2.816,0.93599998 4.04,1.77 c 0.4980001,0.335 0.7789998,0.5369999 0.8419999,0.5999999 0.086,0.085 0.132,0.1950002 0.1399999,0.328 H 5.1620002 V 0.865 H 5.0219998 l -0.04,0.173 -0.1,0.053 c -0.055,0 -0.1649999,-0.053 -0.328,-0.15499992 L 3.5250001,0.233 3.75,0 h 0.6399998 c 0.2730003,0 0.4440003,0.023 0.507,0.079 0.071,0.045 0.1090002,0.154 0.125,0.31 H 5.1620002 V -1.45 H 5.0219998 c -0.016,0.149 -0.064,0.2570001 -0.1399999,0.32 -0.055,0.046 -0.2189998,0.069 -0.4920001,0.069 H 0.773 c -0.26499999,0 -0.436,-0.031 -0.5,-0.078 C 0.212,-1.193 0.165,-1.294 0.141,-1.45 H 0 V 0"
         style="fill:#000000;fill-opacity:1;fill-rule:nonzero;stroke:none"
         id="path1283" />
    </g>
    <g
       id="g1285"
       transform="matrix(0.35277777,0,0,-0.35277777,136.65512,180.63969)"
       style="fill:#000000">
      <path
         d="M 0,0 C 0,0.313 0.086,0.60100001 0.241,0.865 0.398,1.13 0.625,1.326 0.921,1.4659999 1.216,1.6059999 1.542,1.677 1.888,1.677 2.395,1.677 2.815,1.543 3.1589999,1.294 3.563,0.982 3.7650001,0.55299997 3.7650001,0.008 c 0,-0.53799997 -0.1860001,-0.95100001 -0.5600002,-1.24 -0.3739998,-0.289 -0.803,-0.429 -1.303,-0.429 C 1.395,-1.661 0.953,-1.5119999 0.569,-1.217 0.195,-0.92000001 0,-0.514 0,0 m 0.266,0.016 c 0,-0.132 0.054,-0.242 0.148,-0.336 0.1,-0.093 0.295,-0.155 0.58500002,-0.18800001 0.28799988,-0.029 0.68499998,-0.037 1.19899988,-0.037 0.273,0 0.5220001,0.015 0.7580002,0.053 C 3.142,-0.468 3.2739999,-0.405 3.368,-0.312 3.461,-0.218 3.5079999,-0.116 3.5079999,0 c 0,0.109 -0.03,0.211 -0.093,0.28799998 -0.086,0.093 -0.21,0.16500002 -0.368,0.19600002 C 2.815,0.53 2.3229999,0.561 1.59,0.561 1.1619999,0.561 0.866,0.53 0.70200001,0.484 0.546,0.43599998 0.428,0.365 0.352,0.273 0.297,0.203 0.266,0.117 0.266,0.016"
         style="fill:#000000;fill-opacity:1;fill-rule:nonzero;stroke:none"
         id="path1287" />
    </g>
    <g
       id="g1289"
       transform="matrix(0.35277777,0,0,-0.35277777,137.98332,179.28926)"
       style="fill:#000000">
      <path
         d="M 0,0 -2.7509999,-1.201 C -3.079,-1.349 -3.29,-1.4659999 -3.382,-1.544 -3.446,-1.606 -3.4920001,-1.6929999 -3.516,-1.802 h -0.148 v 1.895 h 0.148 c 0,-0.125 0.024,-0.202 0.062,-0.242 l 0.1960001,-0.092 c 0.095,0 0.273,0.054 0.53,0.162 L -1.395,0.51300001 -2.5409999,0.982 C -2.868,1.1139999 -3.102,1.1849999 -3.2420001,1.1849999 L -3.437,1.098 C -3.483,1.037 -3.516,0.93599998 -3.516,0.795 h -0.148 v 1.161 h 0.148 C -3.499,1.847 -3.46,1.7539999 -3.391,1.684 -3.32,1.606 -3.118,1.505 -2.7909999,1.364 L 0,0.179 V 0"
         style="fill:#000000;fill-opacity:1;fill-rule:nonzero;stroke:none"
         id="path1291" />
    </g>
    <g
       id="g1293"
       transform="matrix(0.35277777,0,0,-0.35277777,137.82174,177.30947)"
       style="fill:#000000">
      <path
         d="M 0,0 H 1.317 C 1.496,0 1.62,0.017 1.683,0.047 L 1.832,0.18 C 1.861,0.241 1.878,0.36 1.878,0.537 H 2.019 V -1.488 H 1.878 C 1.869,-1.3329999 1.823,-1.216 1.745,-1.138 1.683,-1.091 1.528,-1.06 1.293,-1.06 H -2.4560001 C -2.707,-1.06 -2.869,-1.091 -2.9389999,-1.153 c -0.072,-0.063 -0.1100001,-0.172 -0.118,-0.335 h -0.148 V 0 h 0.4759998 C -2.9159999,0.125 -3.049,0.249 -3.1270001,0.382 -3.244,0.569 -3.3069999,0.773 -3.3069999,0.99 c 0,0.2589999 0.087,0.492 0.25,0.709 0.165,0.218 0.3899999,0.383 0.6789999,0.492 0.2950001,0.108 0.608,0.171 0.9430001,0.171 0.357,0 0.6939999,-0.063 0.9899999,-0.178 C -0.149,2.066 0.077,1.9019999 0.232,1.6849999 0.38100002,1.4659999 0.458,1.217 0.458,0.95200002 0.458,0.74900001 0.412,0.569 0.336,0.405 0.27200001,0.273 0.155,0.141 0,0 M -0.391,0 C -0.078,0.219 0.077,0.452 0.077,0.70099996 0.077,0.842 0.007,0.95200002 -0.141,1.0449999 -0.352,1.169 -0.75800001,1.24 -1.358,1.24 -1.9659999,1.24 -2.3870001,1.162 -2.6210001,1.021 -2.769,0.92900003 -2.846,0.795 -2.846,0.63999997 -2.846,0.37400001 -2.6589999,0.164 -2.2839999,0 H -0.391"
         style="fill:#000000;fill-opacity:1;fill-rule:nonzero;stroke:none"
         id="path1295" />
    </g>
    <g
       id="g1297"
       transform="matrix(0.35277777,0,0,-0.35277777,136.12665,175.75125)"
       style="fill:#000000">
      <path
         d="M 0,0 H 2.059 C 1.855,0.195 1.7079999,0.37400001 1.623,0.53799998 1.5449999,0.693 1.498,0.865 1.498,1.044 c 0,0.219 0.07,0.4139999 0.196,0.57 C 1.817,1.769 1.965,1.878 2.1370001,1.933 2.309,1.981 2.5969999,2.011 3.003,2.011 h 1.3869998 c 0.2730003,0 0.4440003,0.024 0.507,0.078 0.071,0.048 0.1090002,0.148 0.125,0.3039999 H 5.1620002 V 0.592 H 5.0219998 c -0.016,0.125 -0.064,0.218 -0.1479997,0.28899997 -0.063,0.039 -0.2270003,0.062 -0.4840003,0.062 H 2.8 c -0.2890001,0 -0.468,-0.015 -0.5449999,-0.031 L 2.075,0.795 2.0120001,0.60799997 C 2.0120001,0.50700001 2.052,0.40400001 2.1229999,0.312 2.191,0.218 2.309,0.108 2.48,0 h 1.9099998 c 0.257,0 0.4120002,0.016 0.475,0.062 0.093,0.046 0.1410002,0.141 0.157,0.297 H 5.1620002 V -1.45 H 5.0219998 c -0.016,0.148 -0.064,0.2570001 -0.1399999,0.319 -0.055,0.039 -0.2189998,0.063 -0.4920001,0.063 H 0.773 c -0.26499999,0 -0.436,-0.031 -0.5,-0.078 C 0.212,-1.193 0.165,-1.2949999 0.141,-1.45 H 0 V 0"
         style="fill:#000000;fill-opacity:1;fill-rule:nonzero;stroke:none"
         id="path1299" />
    </g>
    <g
       id="g1301"
       transform="matrix(0.35277777,0,0,-0.35277777,136.65512,174.14082)"
       style="fill:#000000">
      <path
         d="M 0,0 C 0,0.312 0.086,0.60000001 0.241,0.865 0.398,1.1289999 0.625,1.325 0.921,1.4659999 1.216,1.6059999 1.542,1.677 1.888,1.677 2.395,1.677 2.815,1.542 3.1589999,1.294 3.563,0.982 3.7650001,0.55299997 3.7650001,0.007 c 0,-0.53699997 -0.1860001,-0.951 -0.5600002,-1.239 -0.3739998,-0.289 -0.803,-0.429 -1.303,-0.429 C 1.395,-1.661 0.953,-1.513 0.569,-1.216 0.195,-0.92000001 0,-0.514 0,0 m 0.266,0.016 c 0,-0.133 0.054,-0.242 0.148,-0.336 0.1,-0.094 0.295,-0.157 0.58500002,-0.18800001 0.28799988,-0.03 0.68499998,-0.038 1.19899988,-0.038 0.273,0 0.5220001,0.016 0.7580002,0.054 C 3.142,-0.468 3.2739999,-0.405 3.368,-0.312 3.461,-0.219 3.5079999,-0.117 3.5079999,0 c 0,0.109 -0.03,0.211 -0.093,0.289 -0.086,0.092 -0.2100001,0.163 -0.3680001,0.195 -0.2319999,0.046 -0.724,0.077 -1.4569999,0.077 -0.4280001,0 -0.724,-0.031 -0.88799999,-0.077 C 0.546,0.437 0.428,0.366 0.352,0.273 0.297,0.204 0.266,0.117 0.266,0.016"
         style="fill:#000000;fill-opacity:1;fill-rule:nonzero;stroke:none"
         id="path1303" />
    </g>
    <g
       id="g1305"
       transform="matrix(0.35277777,0,0,-0.35277777,136.23178,172.85918)"
       style="fill:#000000">
      <path
         d="M 0,0 H 1.301 V 0.842 H 1.6849999 V 0 h 2.198 C 4.085,0 4.217,0.007 4.2789998,0.023 l 0.1400003,0.101 0.057,0.14099998 C 4.4759998,0.421 4.349,0.57700002 4.0999999,0.732 l 0.085,0.11 c 0.4850002,-0.203 0.7189999,-0.538 0.7189999,-0.998 0,-0.233 -0.056,-0.42100002 -0.1789999,-0.576 -0.125,-0.157 -0.2659998,-0.258 -0.421,-0.297 -0.08,-0.031 -0.313,-0.04 -0.7019999,-0.04 H 1.6849999 v -0.459 h -0.135 C 1.325,-1.216 1.0909999,-0.94300001 0.84100002,-0.718 0.59100001,-0.491 0.31099998,-0.297 0,-0.125 V 0"
         style="fill:#000000;fill-opacity:1;fill-rule:nonzero;stroke:none"
         id="path1307" />
    </g>
    <g
       id="g1309"
       transform="matrix(0.35277777,0,0,-0.35277777,136.65512,171.84953)"
       style="fill:#000000">
      <path
         d="m 0,0 c 0,0.312 0.086,0.59899997 0.241,0.865 0.157,0.2639999 0.384,0.459 0.68,0.6 0.295,0.139 0.621,0.211 0.967,0.211 0.507,0 0.927,-0.134 1.2709999,-0.383 C 3.563,0.981 3.7650001,0.55199998 3.7650001,0.007 c 0,-0.53800001 -0.1860001,-0.951 -0.5600002,-1.24 -0.3739998,-0.2889999 -0.803,-0.4289999 -1.303,-0.4289999 C 1.395,-1.6619999 0.953,-1.513 0.569,-1.217 0.195,-0.921 0,-0.51499997 0,0 m 0.266,0.015 c 0,-0.133 0.054,-0.242 0.148,-0.335 0.1,-0.094 0.295,-0.157 0.58500002,-0.18800001 0.28799988,-0.031 0.68499998,-0.039 1.19899988,-0.039 0.273,0 0.5220001,0.016 0.7580002,0.055 0.1859999,0.023 0.3179998,0.086 0.4119999,0.17900001 0.093,0.094 0.1399999,0.195 0.1399999,0.313 0,0.108 -0.03,0.21 -0.093,0.28799998 -0.086,0.093 -0.21,0.16400002 -0.368,0.19400002 C 2.815,0.52899998 2.3229999,0.56 1.59,0.56 1.1619999,0.56 0.866,0.52899998 0.70200001,0.482 0.546,0.435 0.428,0.364 0.352,0.271 0.297,0.202 0.266,0.115 0.266,0.015"
         style="fill:#000000;fill-opacity:1;fill-rule:nonzero;stroke:none"
         id="path1311" />
    </g>
    <g
       id="g1313"
       transform="matrix(0.35277777,0,0,-0.35277777,136.6911,170.55484)"
       style="fill:#000000">
      <path
         d="M 0,0 H 0.468 C 0.26499998,0.18 0.124,0.352 0.032,0.523 -0.054,0.694 -0.101,0.87300002 -0.101,1.0679999 -0.101,1.294 -0.031,1.482 0.094,1.638 0.218,1.793 0.382,1.896 0.569,1.95 0.717,1.988 0.99800001,2.012 1.403,2.012 h 1.38 c 0.28,0 0.4519999,0.023 0.5150001,0.07 0.071,0.047 0.109,0.155 0.125,0.312 H 3.563 V 0.593 H 3.4230001 C 3.4070001,0.72500001 3.352,0.819 3.2579999,0.88200001 3.1960001,0.92000001 3.04,0.944 2.783,0.944 H 1.201 C 0.912,0.944 0.73299997,0.929 0.65600001,0.905 l -0.18,-0.117 L 0.414,0.60900001 C 0.414,0.38999998 0.569,0.188 0.88099997,0 H 2.783 c 0.273,0 0.4449999,0.024 0.5150001,0.071 0.071,0.047 0.109,0.141 0.125,0.281 H 3.563 V -1.45 H 3.4230001 c -0.016,0.149 -0.063,0.258 -0.1400001,0.32 -0.055,0.039 -0.22,0.062 -0.5,0.062 H 0.77999997 C 0.514,-1.0679999 0.343,-1.099 0.273,-1.145 0.211,-1.192 0.164,-1.294 0.148,-1.45 H 0 V 0"
         style="fill:#000000;fill-opacity:1;fill-rule:nonzero;stroke:none"
         id="path1315" />
    </g>
    <g
       id="g1317"
       transform="matrix(0.35277777,0,0,-0.35277777,138.44828,168.65548)"
       style="fill:#000000">
      <path
         d="m 0,0 h -6.579 v 1.536 h 0.1560002 V 1.364 c 0,-0.172 0.024,-0.28 0.053,-0.335 l 0.158,-0.13299997 c 0.062,-0.031 0.2249999,-0.0470001 0.4829998,-0.0470001 h 4.90400012 c 0.24099998,0 0.38099998,0 0.41999998,0.016 l 0.194,0.13300001 C -0.164,1.0599999 -0.141,1.177 -0.141,1.364 V 1.536 H 0 V 0"
         style="fill:#000000;fill-opacity:1;fill-rule:nonzero;stroke:none"
         id="path1319" />
    </g>
    <g
       id="g1321"
       transform="matrix(0.35277777,0,0,-0.35277777,136.6911,167.42075)"
       style="fill:#000000">
      <path
         d="M 0,0 H 0.468 C 0.26499998,0.18 0.124,0.351 0.032,0.52100001 -0.054,0.693 -0.101,0.87300002 -0.101,1.069 c 0,0.225 0.07,0.4119999 0.195,0.569 0.124,0.155 0.288,0.256 0.475,0.312 0.148,0.037 0.42900001,0.061 0.834,0.061 h 1.38 c 0.28,0 0.4519999,0.024 0.5150001,0.07 0.071,0.048 0.109,0.1569998 0.125,0.3119998 H 3.563 V 0.5929999 H 3.4230001 c -0.016,0.13200001 -0.071,0.22500001 -0.1650002,0.28799997 -0.062,0.039 -0.2179999,0.062 -0.4749999,0.062 H 1.201 c -0.289,0 -0.46800003,-0.015 -0.54499999,-0.038 l -0.18,-0.117 -0.062,-0.18 C 0.414,0.389 0.569,0.188 0.88099997,0 H 2.783 c 0.273,0 0.4449999,0.024 0.5150001,0.071 0.071,0.046 0.109,0.14 0.125,0.28 H 3.563 v -1.8 H 3.4230001 c -0.016,0.148 -0.063,0.2560001 -0.1400001,0.3200001 -0.055,0.038 -0.22,0.061 -0.5,0.061 H 0.77999997 C 0.514,-1.0679999 0.343,-1.098 0.273,-1.145 0.211,-1.1929999 0.164,-1.294 0.148,-1.449 H 0 V 0"
         style="fill:#000000;fill-opacity:1;fill-rule:nonzero;stroke:none"
         id="path1323" />
    </g>
    <g
       id="g1325"
       transform="matrix(0.35277777,0,0,-0.35277777,136.6911,165.88194)"
       style="fill:#000000">
      <path
         d="M 0,0 H 0.47600001 C 0.25600002,0.195 0.109,0.37400001 0.023,0.546 -0.054,0.709 -0.101,0.889 -0.101,1.0909999 -0.101,1.317 -0.046,1.505 0.063,1.661 0.171,1.816 0.328,1.933 0.54500001,2.0179999 0.32,2.2219999 0.156,2.417 0.056,2.602 -0.046,2.79 -0.101,2.9860001 -0.101,3.188 c 0,0.25 0.062,0.444 0.171,0.592 0.111,0.141 0.258,0.2419998 0.42900001,0.3040001 0.17099999,0.056 0.45300001,0.086 0.82699999,0.086 h 1.457 c 0.28,0 0.4519999,0.023 0.5150001,0.071 0.071,0.047 0.109,0.1559996 0.125,0.3109998 H 3.563 v -1.838 H 3.4230001 c -0.008,0.139 -0.063,0.248 -0.1650002,0.3180002 C 3.1960001,3.079 3.033,3.102 2.783,3.102 H 1.255 C 0.94300001,3.102 0.741,3.087 0.65600001,3.063 L 0.461,2.938 0.397,2.7509999 C 0.397,2.6429999 0.444,2.526 0.522,2.417 0.602,2.3069999 0.717,2.1900001 0.87300002,2.082 H 2.783 c 0.2650001,0 0.4200001,0.023 0.4839999,0.069 0.093,0.055 0.1480001,0.164 0.1560002,0.3350001 H 3.563 V 0.639 H 3.4230001 L 3.352,0.87300002 3.188,0.99 C 3.127,1.005 2.994,1.021 2.783,1.021 H 1.255 C 0.93599998,1.021 0.73299997,1.005 0.65600001,0.981 L 0.461,0.84899997 0.38999998,0.662 c 0,-0.10900003 0.032,-0.202 0.086,-0.28099998 C 0.55400002,0.257 0.68599997,0.131 0.87300002,0 H 2.783 C 3.04,0 3.2030001,0.023 3.283,0.069 3.36,0.117 3.4070001,0.225 3.4230001,0.38100002 H 3.563 V -1.45 H 3.4230001 c -0.016,0.148 -0.063,0.2570001 -0.1400001,0.32 -0.055,0.038 -0.22,0.061 -0.5,0.061 H 0.77999997 C 0.514,-1.069 0.343,-1.1 0.273,-1.146 0.211,-1.1929999 0.164,-1.294 0.148,-1.45 H 0 V 0"
         style="fill:#000000;fill-opacity:1;fill-rule:nonzero;stroke:none"
         id="path1327" />
    </g>
    <g
       id="g1329"
       transform="matrix(0.35277777,0,0,-0.35277777,136.45297,163.8764)"
       style="fill:#000000">
      <path
         d="M 0,0 -0.033,-0.076 -0.109,-0.103 -0.18,-0.076 -0.219,0 V 3.132 L -0.18,3.204 -0.109,3.23 -0.033,3.204 0,3.132 V 0"
         style="fill:#000000;fill-opacity:1;fill-rule:nonzero;stroke:none"
         id="path1331" />
    </g>
    <g
       id="g1333"
       transform="matrix(0.35277777,0,0,-0.35277777,136.8957,162.39791)"
       style="fill:#000000">
      <path
         d="m 0,0 h -0.19 c 0,0.453 -0.056,0.68199997 -0.176,0.68199997 H -3.23 C -3.1370001,0.491 -3.0940001,0.25 -3.0940001,-0.033 h -0.1899998 c 0,0.442 -0.1170001,0.77999997 -0.3510001,1.00900001 v 0.077 l 0.016,0.038 0.033,0.016 h 3.22 c 0.12,0 0.176,0.225 0.176,0.682 H 0 V 0"
         style="fill:#000000;fill-opacity:1;fill-rule:nonzero;stroke:none"
         id="path1335" />
    </g>
    <g
       id="g1337"
       transform="matrix(0.35277777,0,0,-0.35277777,136.6911,160.13873)"
       style="fill:#000000">
      <path
         d="M 0,0 H 0.47600001 C 0.25600002,0.195 0.109,0.373 0.023,0.546 c -0.077,0.163 -0.124,0.343 -0.124,0.546 0,0.2259999 0.055,0.414 0.164,0.569 C 0.171,1.817 0.328,1.934 0.54500001,2.019 0.32,2.223 0.156,2.417 0.056,2.602 c -0.102,0.19 -0.157,0.3840001 -0.157,0.5869999 0,0.25 0.062,0.444 0.171,0.592 C 0.181,3.921 0.328,4.0229998 0.49900001,4.085 0.67,4.1399998 0.95200002,4.171 1.326,4.171 h 1.457 c 0.28,0 0.4519999,0.022 0.5150001,0.07 0.071,0.048 0.109,0.1559996 0.125,0.3119998 H 3.563 v -1.84 H 3.4230001 c -0.008,0.1410001 -0.063,0.2489999 -0.1650002,0.32 -0.062,0.047 -0.2249999,0.07 -0.4749999,0.07 H 1.255 c -0.31199999,0 -0.514,-0.016 -0.59899999,-0.04 L 0.461,2.9389999 0.397,2.7509999 C 0.397,2.6429999 0.444,2.526 0.522,2.417 0.602,2.3080001 0.717,2.1900001 0.87300002,2.082 H 2.783 c 0.2650001,0 0.4200001,0.023 0.4839999,0.069 0.093,0.055 0.1480001,0.164 0.1560002,0.336 H 3.563 V 0.639 H 3.4230001 L 3.352,0.87300002 3.188,0.99 C 3.127,1.005 2.994,1.0219999 2.783,1.0219999 H 1.255 C 0.93599998,1.0219999 0.73299997,1.005 0.65600001,0.982 L 0.461,0.85000002 0.38999998,0.662 c 0,-0.10799998 0.032,-0.202 0.086,-0.28 0.078,-0.125 0.20999996,-0.25 0.39700001,-0.382 H 2.783 C 3.04,0 3.2030001,0.023 3.283,0.069 3.36,0.117 3.4070001,0.226 3.4230001,0.382 H 3.563 V -1.449 H 3.4230001 c -0.016,0.148 -0.063,0.2560001 -0.1400001,0.3200001 -0.055,0.037 -0.22,0.061 -0.5,0.061 H 0.77999997 C 0.514,-1.0679999 0.343,-1.1 0.273,-1.146 0.211,-1.1929999 0.164,-1.294 0.148,-1.449 H 0 V 0"
         style="fill:#000000;fill-opacity:1;fill-rule:nonzero;stroke:none"
         id="path1339" />
    </g>
    <g
       id="g1341"
       transform="matrix(0.35277777,0,0,-0.35277777,136.45297,158.13988)"
       style="fill:#000000">
      <path
         d="M 0,0 -0.033,-0.077 -0.109,-0.104 -0.18,-0.077 -0.219,0 V 3.131 L -0.18,3.202 -0.109,3.231 -0.033,3.202 0,3.131 V 0"
         style="fill:#000000;fill-opacity:1;fill-rule:nonzero;stroke:none"
         id="path1343" />
    </g>
    <g
       id="g1345"
       transform="matrix(0.35277777,0,0,-0.35277777,136.8957,156.74429)"
       style="fill:#000000">
      <path
         d="M 0,0 H -0.147 L -0.176,0.011 -1.1139999,0.857 C -1.25,0.981 -1.364,1.086 -1.462,1.168 c -0.093,0.076 -0.2029999,0.158 -0.322,0.235 -0.12,0.076 -0.246,0.1419999 -0.3779999,0.185 -0.125,0.043 -0.2610002,0.07 -0.4030002,0.07 C -2.7119999,1.658 -2.8529999,1.631 -2.99,1.576 -3.1259999,1.523 -3.2360001,1.441 -3.3180001,1.332 c -0.083,-0.11 -0.125,-0.246 -0.125,-0.39799999 0,-0.16000003 0.048,-0.302 0.1410001,-0.427 C -3.2030001,0.377 -3.0829999,0.29 -2.9300001,0.24 l -0.006,0.059 0.083,0.20800001 0.21,0.088 0.214,-0.088 0.088,-0.20800001 -0.088,-0.212 -0.214,-0.087 c -0.128,0 -0.2600002,0.02 -0.3800001,0.076 -0.1199999,0.05 -0.224,0.12 -0.322,0.21899998 -0.093,0.097 -0.1640001,0.206 -0.2130001,0.32699999 -0.048,0.12000001 -0.077,0.25100005 -0.077,0.39300003 0,0.207 0.044,0.3969999 0.132,0.578 0.087,0.18 0.2120001,0.322 0.3770001,0.4249999 0.1619999,0.105 0.349,0.1590001 0.5609998,0.1590001 0.158,0 0.3070002,-0.039 0.448,-0.1040001 C -1.975,2.003 -1.845,1.915 -1.73,1.807 -1.6109999,1.696 -1.479,1.5599999 -1.3329999,1.391 -1.184,1.222 -1.086,1.112 -1.0369999,1.058 L -0.442,0.44100001 v 0.52399996 c 0,0.25700003 0,0.46999993 -0.006,0.64500003 0,0.174 -0.01,0.267 -0.021,0.277 -0.043,0.044 -0.214,0.088 -0.50299999,0.1309999 L -0.972,2.177 0,2.0239999 V 0"
         style="fill:#000000;fill-opacity:1;fill-rule:nonzero;stroke:none"
         id="path1347" />
    </g>
    <g
       id="g1349"
       transform="matrix(0.35277777,0,0,-0.35277777,136.12665,155.07319)"
       style="fill:#000000">
      <path
         d="M 0,0 H 6.5809998 V -1.528 H 6.4330001 v 0.171 c 0,0.1640001 -0.024,0.273 -0.055,0.336 l -0.1469999,0.12499997 c -0.071,0.03 -0.2350001,0.0470001 -0.4839997,0.0470001 H 0.8340003 c -0.24000003,0 -0.381,-0.009 -0.413,-0.017 L 0.22,-0.99 C 0.172,-1.053 0.15,-1.178 0.15,-1.357 V -1.528 H 0 V 0"
         style="fill:#000000;fill-opacity:1;fill-rule:nonzero;stroke:none"
         id="path1351" />
    </g>
    <g
       id="g2095"
       transform="matrix(0.35277777,0,0,-0.35277777,197.7855,193.96446)">
      <path
         d="M 0,0 H -2.734"
         style="fill:#008000;fill-opacity:1;fill-rule:nonzero;stroke:none"
         id="path2097" />
    </g>
    <g
       id="g2099"
       transform="matrix(0.35277777,0,0,-0.35277777,197.7855,193.96446)">
      <path
         d="M 0,0 H -2.734"
         style="fill:none;stroke:#008000;stroke-width:0.35;stroke-linecap:butt;stroke-linejoin:round;stroke-miterlimit:10;stroke-dasharray:none;stroke-opacity:1"
         id="path2101" />
    </g>
    <g
       id="g2183"
       transform="matrix(0.35277777,0,0,-0.35277777,197.7855,152.32329)">
      <path
         d="M 0,0 H -2.734"
         style="fill:#008000;fill-opacity:1;fill-rule:nonzero;stroke:none"
         id="path2185" />
    </g>
    <g
       id="g2187"
       transform="matrix(0.35277777,0,0,-0.35277777,197.7855,152.32329)">
      <path
         d="M 0,0 H -2.734"
         style="fill:none;stroke:#008000;stroke-width:0.35;stroke-linecap:butt;stroke-linejoin:round;stroke-miterlimit:10;stroke-dasharray:none;stroke-opacity:1"
         id="path2189" />
    </g>
  </g>
</svg>
